-- Merging decision tree log ---
provider#androidx.work.impl.WorkManagerInitializer
INJECTED from D:\Project\Android\inventory\app\src\main\AndroidManifest.xml:24:9-27:35
	tools:node
		ADDED from D:\Project\Android\inventory\app\src\main\AndroidManifest.xml:27:13-32
	android:authorities
		INJECTED from D:\Project\Android\inventory\app\src\main\AndroidManifest.xml
		ADDED from D:\Project\Android\inventory\app\src\main\AndroidManifest.xml:26:13-68
	android:name
		ADDED from D:\Project\Android\inventory\app\src\main\AndroidManifest.xml:25:13-69
manifest
ADDED from D:\Project\Android\inventory\app\src\main\AndroidManifest.xml:2:1-30:12
INJECTED from D:\Project\Android\inventory\app\src\main\AndroidManifest.xml:2:1-30:12
INJECTED from D:\Project\Android\inventory\app\src\main\AndroidManifest.xml:2:1-30:12
INJECTED from D:\Project\Android\inventory\app\src\main\AndroidManifest.xml:2:1-30:12
MERGED from [androidx.databinding:databinding-ktx:7.0.4] C:\Users\Dell\.gradle\caches\transforms-3\7edb4c88e2d107d730e9b9429b786017\transformed\jetified-databinding-ktx-7.0.4\AndroidManifest.xml:17:1-22:12
MERGED from [androidx.room:room-ktx:2.4.1] C:\Users\Dell\.gradle\caches\transforms-3\a94bd73b8db75cee41e6fa8e37d32d43\transformed\jetified-room-ktx-2.4.1\AndroidManifest.xml:17:1-24:12
MERGED from [androidx.navigation:navigation-fragment-ktx:2.3.5] C:\Users\Dell\.gradle\caches\transforms-3\8e1cee6e5321541421fa4dcacd04866a\transformed\navigation-fragment-ktx-2.3.5\AndroidManifest.xml:17:1-24:12
MERGED from [androidx.fragment:fragment-testing:1.4.0] C:\Users\Dell\.gradle\caches\transforms-3\5a0f4a6b9c30d088dc29c92774267bf5\transformed\jetified-fragment-testing-1.4.0\AndroidManifest.xml:17:1-40:12
MERGED from [androidx.fragment:fragment-ktx:1.4.0] C:\Users\Dell\.gradle\caches\transforms-3\24514694f7b46af8a86588f9288592d3\transformed\jetified-fragment-ktx-1.4.0\AndroidManifest.xml:17:1-24:12
MERGED from [androidx.navigation:navigation-ui-ktx:2.3.5] C:\Users\Dell\.gradle\caches\transforms-3\f4f201479fc58e889e73295fb6378684\transformed\navigation-ui-ktx-2.3.5\AndroidManifest.xml:17:1-24:12
MERGED from [androidx.navigation:navigation-runtime-ktx:2.3.5] C:\Users\Dell\.gradle\caches\transforms-3\37d3ec56b909b8e478ee531dd6e5264e\transformed\navigation-runtime-ktx-2.3.5\AndroidManifest.xml:17:1-24:12
MERGED from [androidx.activity:activity-ktx:1.2.3] C:\Users\Dell\.gradle\caches\transforms-3\fe14a0ea66af896444b7fbdcd6b18f43\transformed\jetified-activity-ktx-1.2.3\AndroidManifest.xml:17:1-24:12
MERGED from [androidx.lifecycle:lifecycle-viewmodel-ktx:2.4.0] C:\Users\Dell\.gradle\caches\transforms-3\8e8593dd6ed29a7378570eea3430ddcc\transformed\jetified-lifecycle-viewmodel-ktx-2.4.0\AndroidManifest.xml:17:1-24:12
MERGED from [androidx.work:work-runtime-ktx:2.7.1] C:\Users\Dell\.gradle\caches\transforms-3\2ad09d66657e72027000deebd76b1764\transformed\work-runtime-ktx-2.7.1\AndroidManifest.xml:17:1-24:12
MERGED from [androidx.lifecycle:lifecycle-runtime-ktx:2.3.1] C:\Users\Dell\.gradle\caches\transforms-3\8ec6ecd3535ca4a2684d633995c04c23\transformed\jetified-lifecycle-runtime-ktx-2.3.1\AndroidManifest.xml:17:1-24:12
MERGED from [androidx.lifecycle:lifecycle-livedata-ktx:2.4.0] C:\Users\Dell\.gradle\caches\transforms-3\2d5cb2f94577bc66254c2ef25313ede3\transformed\jetified-lifecycle-livedata-ktx-2.4.0\AndroidManifest.xml:17:1-24:12
MERGED from [androidx.databinding:databinding-adapters:7.0.4] C:\Users\Dell\.gradle\caches\transforms-3\206bdd489159496d13fb80cc44cc3670\transformed\databinding-adapters-7.0.4\AndroidManifest.xml:17:1-22:12
MERGED from [androidx.databinding:databinding-runtime:7.0.4] C:\Users\Dell\.gradle\caches\transforms-3\c3eb208a1ca8fe92c6fdd5f34af5458b\transformed\databinding-runtime-7.0.4\AndroidManifest.xml:17:1-22:12
MERGED from [androidx.navigation:navigation-ui:2.3.5] C:\Users\Dell\.gradle\caches\transforms-3\2edc4294c40f61ecd91721dba8cc441b\transformed\navigation-ui-2.3.5\AndroidManifest.xml:17:1-24:12
MERGED from [com.google.android.material:material:1.5.0] C:\Users\Dell\.gradle\caches\transforms-3\d3ac8f318150a53c9b2259ddc4d80d53\transformed\material-1.5.0\AndroidManifest.xml:17:1-24:12
MERGED from [androidx.constraintlayout:constraintlayout:2.1.3] C:\Users\Dell\.gradle\caches\transforms-3\4c962d02ac95bf2a2aca3c78edd52989\transformed\constraintlayout-2.1.3\AndroidManifest.xml:2:1-11:12
MERGED from [com.google.dagger:dagger-android-support:2.40.5] C:\Users\Dell\.gradle\caches\transforms-3\4c561b6529d34a31b7ef6126889c46e8\transformed\jetified-dagger-android-support-2.40.5\AndroidManifest.xml:17:1-22:12
MERGED from [androidx.appcompat:appcompat:1.4.1] C:\Users\Dell\.gradle\caches\transforms-3\33e2382e2a4b05258454807d965391b6\transformed\appcompat-1.4.1\AndroidManifest.xml:17:1-24:12
MERGED from [androidx.cardview:cardview:1.0.0] C:\Users\Dell\.gradle\caches\transforms-3\b7312bcc4ffce1e59f8fe6e4255d2ae0\transformed\cardview-1.0.0\AndroidManifest.xml:17:1-22:12
MERGED from [androidx.viewpager2:viewpager2:1.0.0] C:\Users\Dell\.gradle\caches\transforms-3\7fc62de299254cc27ecb9d1afab28a33\transformed\jetified-viewpager2-1.0.0\AndroidManifest.xml:17:1-24:12
MERGED from [androidx.recyclerview:recyclerview:1.2.1] C:\Users\Dell\.gradle\caches\transforms-3\1181acee24020d87f82bdb864aa1c652\transformed\recyclerview-1.2.1\AndroidManifest.xml:17:1-24:12
MERGED from [androidx.test:core:1.4.0] C:\Users\Dell\.gradle\caches\transforms-3\8352d3479711a06a084bcc82169552bb\transformed\jetified-core-1.4.0\AndroidManifest.xml:17:1-53:12
MERGED from [androidx.lifecycle:lifecycle-extensions:2.2.0] C:\Users\Dell\.gradle\caches\transforms-3\5fc2d1aad8b8f6a3e6938afa1b408a82\transformed\lifecycle-extensions-2.2.0\AndroidManifest.xml:17:1-27:12
MERGED from [androidx.legacy:legacy-support-v4:1.0.0] C:\Users\Dell\.gradle\caches\transforms-3\9ace586c07eebad8bd3c701b3ad86824\transformed\legacy-support-v4-1.0.0\AndroidManifest.xml:17:1-22:12
MERGED from [androidx.navigation:navigation-fragment:2.3.5] C:\Users\Dell\.gradle\caches\transforms-3\01121329d08083f3f54c6d6e8fda0168\transformed\navigation-fragment-2.3.5\AndroidManifest.xml:17:1-24:12
MERGED from [androidx.fragment:fragment:1.4.0] C:\Users\Dell\.gradle\caches\transforms-3\fd3481a3fd29332c2a918359f817fe43\transformed\fragment-1.4.0\AndroidManifest.xml:17:1-24:12
MERGED from [androidx.navigation:navigation-runtime:2.3.5] C:\Users\Dell\.gradle\caches\transforms-3\f9911825e65583f8971a4176e5eb4a3a\transformed\navigation-runtime-2.3.5\AndroidManifest.xml:17:1-24:12
MERGED from [androidx.activity:activity:1.3.1] C:\Users\Dell\.gradle\caches\transforms-3\fea675a072ff641806f9d687d8fd96f0\transformed\jetified-activity-1.3.1\AndroidManifest.xml:17:1-24:12
MERGED from [androidx.lifecycle:lifecycle-viewmodel-savedstate:2.3.1] C:\Users\Dell\.gradle\caches\transforms-3\0ee9a97f95facb914f955c1061d5c5d7\transformed\jetified-lifecycle-viewmodel-savedstate-2.3.1\AndroidManifest.xml:17:1-24:12
MERGED from [androidx.savedstate:savedstate-ktx:1.1.0] C:\Users\Dell\.gradle\caches\transforms-3\c5eee14e70ecfa2539031aad01936796\transformed\jetified-savedstate-ktx-1.1.0\AndroidManifest.xml:17:1-24:12
MERGED from [androidx.savedstate:savedstate:1.1.0] C:\Users\Dell\.gradle\caches\transforms-3\f0953bddbc0578a50837236a32c99fa5\transformed\jetified-savedstate-1.1.0\AndroidManifest.xml:17:1-24:12
MERGED from [androidx.work:work-runtime:2.7.1] C:\Users\Dell\.gradle\caches\transforms-3\68cc233edb7c23ffea174cb2f5273bb3\transformed\work-runtime-2.7.1\AndroidManifest.xml:17:1-145:12
MERGED from [androidx.legacy:legacy-support-core-ui:1.0.0] C:\Users\Dell\.gradle\caches\transforms-3\2376053718bd38336c6541f144da445e\transformed\legacy-support-core-ui-1.0.0\AndroidManifest.xml:17:1-22:12
MERGED from [androidx.dynamicanimation:dynamicanimation:1.0.0] C:\Users\Dell\.gradle\caches\transforms-3\aa20c6c47d7e7990794842b3e050509d\transformed\dynamicanimation-1.0.0\AndroidManifest.xml:17:1-22:12
MERGED from [androidx.legacy:legacy-support-core-utils:1.0.0] C:\Users\Dell\.gradle\caches\transforms-3\c1e3387be376640941afd43547b841d4\transformed\legacy-support-core-utils-1.0.0\AndroidManifest.xml:17:1-22:12
MERGED from [androidx.loader:loader:1.0.0] C:\Users\Dell\.gradle\caches\transforms-3\6a6c7fc09437ba9766ed9bc28f8f6e7e\transformed\loader-1.0.0\AndroidManifest.xml:17:1-22:12
MERGED from [androidx.lifecycle:lifecycle-livedata:2.4.0] C:\Users\Dell\.gradle\caches\transforms-3\9989f7907aa53b20df511016558222ee\transformed\lifecycle-livedata-2.4.0\AndroidManifest.xml:17:1-24:12
MERGED from [androidx.lifecycle:lifecycle-livedata-core-ktx:2.4.0] C:\Users\Dell\.gradle\caches\transforms-3\c91568bdfaa39b402912975cfb6c2ea6\transformed\jetified-lifecycle-livedata-core-ktx-2.4.0\AndroidManifest.xml:17:1-24:12
MERGED from [androidx.lifecycle:lifecycle-livedata-core:2.4.0] C:\Users\Dell\.gradle\caches\transforms-3\863f00db75988be54ab230271cf099e7\transformed\lifecycle-livedata-core-2.4.0\AndroidManifest.xml:17:1-24:12
MERGED from [androidx.appcompat:appcompat-resources:1.4.1] C:\Users\Dell\.gradle\caches\transforms-3\7694a124288ce71fc340b1370acc230e\transformed\jetified-appcompat-resources-1.4.1\AndroidManifest.xml:17:1-24:12
MERGED from [androidx.emoji2:emoji2-views-helper:1.0.0] C:\Users\Dell\.gradle\caches\transforms-3\a4dc37779c45f630f576fffd880ed8bf\transformed\jetified-emoji2-views-helper-1.0.0\AndroidManifest.xml:17:1-24:12
MERGED from [androidx.emoji2:emoji2:1.0.0] C:\Users\Dell\.gradle\caches\transforms-3\6e6a280a6dae4397ab2d83c1b19a23ec\transformed\jetified-emoji2-1.0.0\AndroidManifest.xml:17:1-37:12
MERGED from [androidx.media:media:1.0.0] C:\Users\Dell\.gradle\caches\transforms-3\567881ef76cf4e7997f3479352387932\transformed\media-1.0.0\AndroidManifest.xml:17:1-22:12
MERGED from [androidx.drawerlayout:drawerlayout:1.1.1] C:\Users\Dell\.gradle\caches\transforms-3\9f21449c63f6bb9da330282dc4708115\transformed\drawerlayout-1.1.1\AndroidManifest.xml:17:1-24:12
MERGED from [androidx.coordinatorlayout:coordinatorlayout:1.1.0] C:\Users\Dell\.gradle\caches\transforms-3\77265d74cfd22c72b5f8636452fc045a\transformed\coordinatorlayout-1.1.0\AndroidManifest.xml:17:1-24:12
MERGED from [androidx.vectordrawable:vectordrawable-animated:1.1.0] C:\Users\Dell\.gradle\caches\transforms-3\73da512849f415d0dd664bfe81dc04fc\transformed\vectordrawable-animated-1.1.0\AndroidManifest.xml:17:1-24:12
MERGED from [androidx.vectordrawable:vectordrawable:1.1.0] C:\Users\Dell\.gradle\caches\transforms-3\cf7998edd8b6de7ea68289daf58ac42b\transformed\vectordrawable-1.1.0\AndroidManifest.xml:17:1-24:12
MERGED from [androidx.navigation:navigation-common-ktx:2.3.5] C:\Users\Dell\.gradle\caches\transforms-3\cac08617284c8cde5d71a92bb0c3663f\transformed\navigation-common-ktx-2.3.5\AndroidManifest.xml:17:1-24:12
MERGED from [androidx.core:core-ktx:1.2.0] C:\Users\Dell\.gradle\caches\transforms-3\a25f05e7ebdb4a9a75f35ef003f74901\transformed\jetified-core-ktx-1.2.0\AndroidManifest.xml:2:1-9:12
MERGED from [androidx.viewpager:viewpager:1.0.0] C:\Users\Dell\.gradle\caches\transforms-3\aaf995519d2183f05954f857b3455a99\transformed\viewpager-1.0.0\AndroidManifest.xml:17:1-22:12
MERGED from [androidx.slidingpanelayout:slidingpanelayout:1.0.0] C:\Users\Dell\.gradle\caches\transforms-3\f5af907d3a8025ec543491a87bbcfe65\transformed\slidingpanelayout-1.0.0\AndroidManifest.xml:17:1-22:12
MERGED from [androidx.customview:customview:1.1.0] C:\Users\Dell\.gradle\caches\transforms-3\87d2b1e65061c7dfb56d371f536e39ec\transformed\customview-1.1.0\AndroidManifest.xml:17:1-24:12
MERGED from [androidx.transition:transition:1.3.0] C:\Users\Dell\.gradle\caches\transforms-3\0d094630f710bf0a20e15ed3bb40523a\transformed\transition-1.3.0\AndroidManifest.xml:17:1-24:12
MERGED from [androidx.swiperefreshlayout:swiperefreshlayout:1.0.0] C:\Users\Dell\.gradle\caches\transforms-3\491f9d833f2a255b3572e80be4f81706\transformed\swiperefreshlayout-1.0.0\AndroidManifest.xml:17:1-22:12
MERGED from [androidx.asynclayoutinflater:asynclayoutinflater:1.0.0] C:\Users\Dell\.gradle\caches\transforms-3\e1480f6e10f4937943c053c9bbe90c25\transformed\asynclayoutinflater-1.0.0\AndroidManifest.xml:17:1-22:12
MERGED from [androidx.navigation:navigation-common:2.3.5] C:\Users\Dell\.gradle\caches\transforms-3\e2b2ee1978962002b75a56cd36369320\transformed\navigation-common-2.3.5\AndroidManifest.xml:17:1-24:12
MERGED from [androidx.core:core:1.7.0] C:\Users\Dell\.gradle\caches\transforms-3\de6558bdf3199a891106e54fae2fc697\transformed\core-1.7.0\AndroidManifest.xml:17:1-26:12
MERGED from [androidx.lifecycle:lifecycle-service:2.2.0] C:\Users\Dell\.gradle\caches\transforms-3\bb97a431255515b42e6abd9bf854e5d9\transformed\jetified-lifecycle-service-2.2.0\AndroidManifest.xml:17:1-24:12
MERGED from [androidx.lifecycle:lifecycle-process:2.4.0] C:\Users\Dell\.gradle\caches\transforms-3\158b69580b367293f324ef966c720e99\transformed\jetified-lifecycle-process-2.4.0\AndroidManifest.xml:17:1-37:12
MERGED from [androidx.lifecycle:lifecycle-runtime:2.4.0] C:\Users\Dell\.gradle\caches\transforms-3\bd547d48812cd60d433182030485618f\transformed\lifecycle-runtime-2.4.0\AndroidManifest.xml:17:1-24:12
MERGED from [androidx.databinding:viewbinding:7.0.4] C:\Users\Dell\.gradle\caches\transforms-3\bf9898a9167509125074586d20a66a66\transformed\jetified-viewbinding-7.0.4\AndroidManifest.xml:17:1-22:12
MERGED from [androidx.cursoradapter:cursoradapter:1.0.0] C:\Users\Dell\.gradle\caches\transforms-3\63d751e31e7fc86353a3472fc8366a61\transformed\cursoradapter-1.0.0\AndroidManifest.xml:17:1-22:12
MERGED from [androidx.room:room-runtime:2.4.1] C:\Users\Dell\.gradle\caches\transforms-3\caff5b252ea7a3940fe686b4508c9653\transformed\room-runtime-2.4.1\AndroidManifest.xml:17:1-31:12
MERGED from [androidx.sqlite:sqlite-framework:2.2.0] C:\Users\Dell\.gradle\caches\transforms-3\03b29dfff9e42a8d93ea8a1e51e7ab14\transformed\sqlite-framework-2.2.0\AndroidManifest.xml:17:1-24:12
MERGED from [androidx.sqlite:sqlite:2.2.0] C:\Users\Dell\.gradle\caches\transforms-3\18617e7ad292d88d9645b9f7e712b64f\transformed\sqlite-2.2.0\AndroidManifest.xml:17:1-24:12
MERGED from [androidx.lifecycle:lifecycle-viewmodel:2.4.0] C:\Users\Dell\.gradle\caches\transforms-3\8d23a09020180cac711befa1f44eba2d\transformed\lifecycle-viewmodel-2.4.0\AndroidManifest.xml:17:1-24:12
MERGED from [com.google.dagger:dagger-android:2.40.5] C:\Users\Dell\.gradle\caches\transforms-3\fc71486e914ba093cfd57e2917aa7d9b\transformed\jetified-dagger-android-2.40.5\AndroidManifest.xml:17:1-22:12
MERGED from [androidx.test:monitor:1.4.0] C:\Users\Dell\.gradle\caches\transforms-3\6c16eec4a2fe7b86b41be8ae720af167\transformed\monitor-1.4.0\AndroidManifest.xml:17:1-24:12
MERGED from [androidx.arch.core:core-runtime:2.1.0] C:\Users\Dell\.gradle\caches\transforms-3\7b641a806dc522a69f5852c509639d81\transformed\core-runtime-2.1.0\AndroidManifest.xml:17:1-24:12
MERGED from [androidx.versionedparcelable:versionedparcelable:1.1.1] C:\Users\Dell\.gradle\caches\transforms-3\e783d309b9d801dace9261f9b3f59629\transformed\versionedparcelable-1.1.1\AndroidManifest.xml:17:1-27:12
MERGED from [androidx.startup:startup-runtime:1.0.0] C:\Users\Dell\.gradle\caches\transforms-3\6c45329d90b30e24d21f8e70e361c521\transformed\jetified-startup-runtime-1.0.0\AndroidManifest.xml:17:1-33:12
MERGED from [androidx.documentfile:documentfile:1.0.0] C:\Users\Dell\.gradle\caches\transforms-3\b049b2b3fdf3b6905dd430b940e81457\transformed\documentfile-1.0.0\AndroidManifest.xml:17:1-22:12
MERGED from [androidx.localbroadcastmanager:localbroadcastmanager:1.0.0] C:\Users\Dell\.gradle\caches\transforms-3\05d515ab41a066092915730cd2eee40c\transformed\localbroadcastmanager-1.0.0\AndroidManifest.xml:17:1-22:12
MERGED from [androidx.print:print:1.0.0] C:\Users\Dell\.gradle\caches\transforms-3\9084d33958db52ce5d05fe4c692e7e26\transformed\print-1.0.0\AndroidManifest.xml:17:1-22:12
MERGED from [androidx.interpolator:interpolator:1.0.0] C:\Users\Dell\.gradle\caches\transforms-3\abcba4dbc0f13cb879de736782034c65\transformed\interpolator-1.0.0\AndroidManifest.xml:17:1-22:12
MERGED from [androidx.tracing:tracing:1.0.0] C:\Users\Dell\.gradle\caches\transforms-3\38b52279abe28eae0147a8c8e7cdd136\transformed\jetified-tracing-1.0.0\AndroidManifest.xml:17:1-24:12
MERGED from [com.jakewharton.timber:timber:5.0.1] C:\Users\Dell\.gradle\caches\transforms-3\1b4f500d159ff632d72d7437d30c9e54\transformed\jetified-timber-5.0.1\AndroidManifest.xml:2:1-9:12
MERGED from [androidx.annotation:annotation-experimental:1.1.0] C:\Users\Dell\.gradle\caches\transforms-3\4e4808df0c0a6665677736c980a2a366\transformed\jetified-annotation-experimental-1.1.0\AndroidManifest.xml:17:1-24:12
MERGED from [com.google.dagger:dagger-lint-aar:2.40.5] C:\Users\Dell\.gradle\caches\transforms-3\c054ded86ccca4aa767e459148370f0b\transformed\jetified-dagger-lint-aar-2.40.5\AndroidManifest.xml:16:1-19:12
INJECTED from D:\Project\Android\inventory\app\src\main\AndroidManifest.xml:2:1-30:12
INJECTED from D:\Project\Android\inventory\app\src\main\AndroidManifest.xml:2:1-30:12
INJECTED from D:\Project\Android\inventory\app\src\main\AndroidManifest.xml:2:1-30:12
	package
		ADDED from D:\Project\Android\inventory\app\src\main\AndroidManifest.xml:4:5-34
		INJECTED from D:\Project\Android\inventory\app\src\main\AndroidManifest.xml
		INJECTED from D:\Project\Android\inventory\app\src\main\AndroidManifest.xml
	android:versionName
		INJECTED from D:\Project\Android\inventory\app\src\main\AndroidManifest.xml
		ADDED from D:\Project\Android\inventory\app\src\main\AndroidManifest.xml:2:1-30:12
		INJECTED from D:\Project\Android\inventory\app\src\main\AndroidManifest.xml
	xmlns:tools
		ADDED from D:\Project\Android\inventory\app\src\main\AndroidManifest.xml:3:5-51
	android:versionCode
		INJECTED from D:\Project\Android\inventory\app\src\main\AndroidManifest.xml
		ADDED from D:\Project\Android\inventory\app\src\main\AndroidManifest.xml:2:1-30:12
		INJECTED from D:\Project\Android\inventory\app\src\main\AndroidManifest.xml
	xmlns:android
		ADDED from D:\Project\Android\inventory\app\src\main\AndroidManifest.xml:2:11-69
uses-permission#android.permission.READ_EXTERNAL_STORAGE
ADDED from D:\Project\Android\inventory\app\src\main\AndroidManifest.xml:6:5-80
	android:name
		ADDED from D:\Project\Android\inventory\app\src\main\AndroidManifest.xml:6:22-77
uses-permission#android.permission.WRITE_EXTERNAL_STORAGE
ADDED from D:\Project\Android\inventory\app\src\main\AndroidManifest.xml:7:5-81
	android:name
		ADDED from D:\Project\Android\inventory\app\src\main\AndroidManifest.xml:7:22-78
application
ADDED from D:\Project\Android\inventory\app\src\main\AndroidManifest.xml:9:5-28:19
MERGED from [androidx.fragment:fragment-testing:1.4.0] C:\Users\Dell\.gradle\caches\transforms-3\5a0f4a6b9c30d088dc29c92774267bf5\transformed\jetified-fragment-testing-1.4.0\AndroidManifest.xml:27:5-38:19
MERGED from [androidx.fragment:fragment-testing:1.4.0] C:\Users\Dell\.gradle\caches\transforms-3\5a0f4a6b9c30d088dc29c92774267bf5\transformed\jetified-fragment-testing-1.4.0\AndroidManifest.xml:27:5-38:19
MERGED from [com.google.android.material:material:1.5.0] C:\Users\Dell\.gradle\caches\transforms-3\d3ac8f318150a53c9b2259ddc4d80d53\transformed\material-1.5.0\AndroidManifest.xml:22:5-20
MERGED from [com.google.android.material:material:1.5.0] C:\Users\Dell\.gradle\caches\transforms-3\d3ac8f318150a53c9b2259ddc4d80d53\transformed\material-1.5.0\AndroidManifest.xml:22:5-20
MERGED from [androidx.constraintlayout:constraintlayout:2.1.3] C:\Users\Dell\.gradle\caches\transforms-3\4c962d02ac95bf2a2aca3c78edd52989\transformed\constraintlayout-2.1.3\AndroidManifest.xml:9:5-20
MERGED from [androidx.constraintlayout:constraintlayout:2.1.3] C:\Users\Dell\.gradle\caches\transforms-3\4c962d02ac95bf2a2aca3c78edd52989\transformed\constraintlayout-2.1.3\AndroidManifest.xml:9:5-20
MERGED from [androidx.test:core:1.4.0] C:\Users\Dell\.gradle\caches\transforms-3\8352d3479711a06a084bcc82169552bb\transformed\jetified-core-1.4.0\AndroidManifest.xml:26:5-51:19
MERGED from [androidx.test:core:1.4.0] C:\Users\Dell\.gradle\caches\transforms-3\8352d3479711a06a084bcc82169552bb\transformed\jetified-core-1.4.0\AndroidManifest.xml:26:5-51:19
MERGED from [androidx.lifecycle:lifecycle-extensions:2.2.0] C:\Users\Dell\.gradle\caches\transforms-3\5fc2d1aad8b8f6a3e6938afa1b408a82\transformed\lifecycle-extensions-2.2.0\AndroidManifest.xml:24:5-25:19
MERGED from [androidx.lifecycle:lifecycle-extensions:2.2.0] C:\Users\Dell\.gradle\caches\transforms-3\5fc2d1aad8b8f6a3e6938afa1b408a82\transformed\lifecycle-extensions-2.2.0\AndroidManifest.xml:24:5-25:19
MERGED from [androidx.work:work-runtime:2.7.1] C:\Users\Dell\.gradle\caches\transforms-3\68cc233edb7c23ffea174cb2f5273bb3\transformed\work-runtime-2.7.1\AndroidManifest.xml:30:5-143:19
MERGED from [androidx.work:work-runtime:2.7.1] C:\Users\Dell\.gradle\caches\transforms-3\68cc233edb7c23ffea174cb2f5273bb3\transformed\work-runtime-2.7.1\AndroidManifest.xml:30:5-143:19
MERGED from [androidx.emoji2:emoji2:1.0.0] C:\Users\Dell\.gradle\caches\transforms-3\6e6a280a6dae4397ab2d83c1b19a23ec\transformed\jetified-emoji2-1.0.0\AndroidManifest.xml:25:5-35:19
MERGED from [androidx.emoji2:emoji2:1.0.0] C:\Users\Dell\.gradle\caches\transforms-3\6e6a280a6dae4397ab2d83c1b19a23ec\transformed\jetified-emoji2-1.0.0\AndroidManifest.xml:25:5-35:19
MERGED from [androidx.core:core:1.7.0] C:\Users\Dell\.gradle\caches\transforms-3\de6558bdf3199a891106e54fae2fc697\transformed\core-1.7.0\AndroidManifest.xml:24:5-89
MERGED from [androidx.core:core:1.7.0] C:\Users\Dell\.gradle\caches\transforms-3\de6558bdf3199a891106e54fae2fc697\transformed\core-1.7.0\AndroidManifest.xml:24:5-89
MERGED from [androidx.lifecycle:lifecycle-process:2.4.0] C:\Users\Dell\.gradle\caches\transforms-3\158b69580b367293f324ef966c720e99\transformed\jetified-lifecycle-process-2.4.0\AndroidManifest.xml:25:5-35:19
MERGED from [androidx.lifecycle:lifecycle-process:2.4.0] C:\Users\Dell\.gradle\caches\transforms-3\158b69580b367293f324ef966c720e99\transformed\jetified-lifecycle-process-2.4.0\AndroidManifest.xml:25:5-35:19
MERGED from [androidx.room:room-runtime:2.4.1] C:\Users\Dell\.gradle\caches\transforms-3\caff5b252ea7a3940fe686b4508c9653\transformed\room-runtime-2.4.1\AndroidManifest.xml:24:5-29:19
MERGED from [androidx.room:room-runtime:2.4.1] C:\Users\Dell\.gradle\caches\transforms-3\caff5b252ea7a3940fe686b4508c9653\transformed\room-runtime-2.4.1\AndroidManifest.xml:24:5-29:19
MERGED from [androidx.versionedparcelable:versionedparcelable:1.1.1] C:\Users\Dell\.gradle\caches\transforms-3\e783d309b9d801dace9261f9b3f59629\transformed\versionedparcelable-1.1.1\AndroidManifest.xml:24:5-25:19
MERGED from [androidx.versionedparcelable:versionedparcelable:1.1.1] C:\Users\Dell\.gradle\caches\transforms-3\e783d309b9d801dace9261f9b3f59629\transformed\versionedparcelable-1.1.1\AndroidManifest.xml:24:5-25:19
MERGED from [androidx.startup:startup-runtime:1.0.0] C:\Users\Dell\.gradle\caches\transforms-3\6c45329d90b30e24d21f8e70e361c521\transformed\jetified-startup-runtime-1.0.0\AndroidManifest.xml:25:5-31:19
MERGED from [androidx.startup:startup-runtime:1.0.0] C:\Users\Dell\.gradle\caches\transforms-3\6c45329d90b30e24d21f8e70e361c521\transformed\jetified-startup-runtime-1.0.0\AndroidManifest.xml:25:5-31:19
MERGED from [com.jakewharton.timber:timber:5.0.1] C:\Users\Dell\.gradle\caches\transforms-3\1b4f500d159ff632d72d7437d30c9e54\transformed\jetified-timber-5.0.1\AndroidManifest.xml:7:5-20
MERGED from [com.jakewharton.timber:timber:5.0.1] C:\Users\Dell\.gradle\caches\transforms-3\1b4f500d159ff632d72d7437d30c9e54\transformed\jetified-timber-5.0.1\AndroidManifest.xml:7:5-20
	android:appComponentFactory
		ADDED from [androidx.core:core:1.7.0] C:\Users\Dell\.gradle\caches\transforms-3\de6558bdf3199a891106e54fae2fc697\transformed\core-1.7.0\AndroidManifest.xml:24:18-86
	android:supportsRtl
		ADDED from D:\Project\Android\inventory\app\src\main\AndroidManifest.xml:15:9-35
	android:label
		ADDED from D:\Project\Android\inventory\app\src\main\AndroidManifest.xml:13:9-41
	android:roundIcon
		ADDED from D:\Project\Android\inventory\app\src\main\AndroidManifest.xml:14:9-54
	android:icon
		ADDED from D:\Project\Android\inventory\app\src\main\AndroidManifest.xml:12:9-43
	android:allowBackup
		ADDED from D:\Project\Android\inventory\app\src\main\AndroidManifest.xml:11:9-35
	android:theme
		ADDED from D:\Project\Android\inventory\app\src\main\AndroidManifest.xml:16:9-40
	android:name
		ADDED from D:\Project\Android\inventory\app\src\main\AndroidManifest.xml:10:9-38
activity#com.wadas.inventory.ui.activity.MainActivity
ADDED from D:\Project\Android\inventory\app\src\main\AndroidManifest.xml:17:9-23:20
	android:name
		ADDED from D:\Project\Android\inventory\app\src\main\AndroidManifest.xml:17:19-59
intent-filter#action:name:android.intent.action.MAIN+category:name:android.intent.category.LAUNCHER
ADDED from D:\Project\Android\inventory\app\src\main\AndroidManifest.xml:18:13-22:29
action#android.intent.action.MAIN
ADDED from D:\Project\Android\inventory\app\src\main\AndroidManifest.xml:19:17-69
	android:name
		ADDED from D:\Project\Android\inventory\app\src\main\AndroidManifest.xml:19:25-66
category#android.intent.category.LAUNCHER
ADDED from D:\Project\Android\inventory\app\src\main\AndroidManifest.xml:21:17-77
	android:name
		ADDED from D:\Project\Android\inventory\app\src\main\AndroidManifest.xml:21:27-74
uses-sdk
INJECTED from D:\Project\Android\inventory\app\src\main\AndroidManifest.xml reason: use-sdk injection requested
INJECTED from D:\Project\Android\inventory\app\src\main\AndroidManifest.xml
INJECTED from D:\Project\Android\inventory\app\src\main\AndroidManifest.xml
MERGED from [androidx.databinding:databinding-ktx:7.0.4] C:\Users\Dell\.gradle\caches\transforms-3\7edb4c88e2d107d730e9b9429b786017\transformed\jetified-databinding-ktx-7.0.4\AndroidManifest.xml:20:5-44
MERGED from [androidx.databinding:databinding-ktx:7.0.4] C:\Users\Dell\.gradle\caches\transforms-3\7edb4c88e2d107d730e9b9429b786017\transformed\jetified-databinding-ktx-7.0.4\AndroidManifest.xml:20:5-44
MERGED from [androidx.room:room-ktx:2.4.1] C:\Users\Dell\.gradle\caches\transforms-3\a94bd73b8db75cee41e6fa8e37d32d43\transformed\jetified-room-ktx-2.4.1\AndroidManifest.xml:20:5-22:41
MERGED from [androidx.room:room-ktx:2.4.1] C:\Users\Dell\.gradle\caches\transforms-3\a94bd73b8db75cee41e6fa8e37d32d43\transformed\jetified-room-ktx-2.4.1\AndroidManifest.xml:20:5-22:41
MERGED from [androidx.navigation:navigation-fragment-ktx:2.3.5] C:\Users\Dell\.gradle\caches\transforms-3\8e1cee6e5321541421fa4dcacd04866a\transformed\navigation-fragment-ktx-2.3.5\AndroidManifest.xml:20:5-22:41
MERGED from [androidx.navigation:navigation-fragment-ktx:2.3.5] C:\Users\Dell\.gradle\caches\transforms-3\8e1cee6e5321541421fa4dcacd04866a\transformed\navigation-fragment-ktx-2.3.5\AndroidManifest.xml:20:5-22:41
MERGED from [androidx.fragment:fragment-testing:1.4.0] C:\Users\Dell\.gradle\caches\transforms-3\5a0f4a6b9c30d088dc29c92774267bf5\transformed\jetified-fragment-testing-1.4.0\AndroidManifest.xml:20:5-23:54
MERGED from [androidx.fragment:fragment-testing:1.4.0] C:\Users\Dell\.gradle\caches\transforms-3\5a0f4a6b9c30d088dc29c92774267bf5\transformed\jetified-fragment-testing-1.4.0\AndroidManifest.xml:20:5-23:54
MERGED from [androidx.fragment:fragment-ktx:1.4.0] C:\Users\Dell\.gradle\caches\transforms-3\24514694f7b46af8a86588f9288592d3\transformed\jetified-fragment-ktx-1.4.0\AndroidManifest.xml:20:5-22:41
MERGED from [androidx.fragment:fragment-ktx:1.4.0] C:\Users\Dell\.gradle\caches\transforms-3\24514694f7b46af8a86588f9288592d3\transformed\jetified-fragment-ktx-1.4.0\AndroidManifest.xml:20:5-22:41
MERGED from [androidx.navigation:navigation-ui-ktx:2.3.5] C:\Users\Dell\.gradle\caches\transforms-3\f4f201479fc58e889e73295fb6378684\transformed\navigation-ui-ktx-2.3.5\AndroidManifest.xml:20:5-22:41
MERGED from [androidx.navigation:navigation-ui-ktx:2.3.5] C:\Users\Dell\.gradle\caches\transforms-3\f4f201479fc58e889e73295fb6378684\transformed\navigation-ui-ktx-2.3.5\AndroidManifest.xml:20:5-22:41
MERGED from [androidx.navigation:navigation-runtime-ktx:2.3.5] C:\Users\Dell\.gradle\caches\transforms-3\37d3ec56b909b8e478ee531dd6e5264e\transformed\navigation-runtime-ktx-2.3.5\AndroidManifest.xml:20:5-22:41
MERGED from [androidx.navigation:navigation-runtime-ktx:2.3.5] C:\Users\Dell\.gradle\caches\transforms-3\37d3ec56b909b8e478ee531dd6e5264e\transformed\navigation-runtime-ktx-2.3.5\AndroidManifest.xml:20:5-22:41
MERGED from [androidx.activity:activity-ktx:1.2.3] C:\Users\Dell\.gradle\caches\transforms-3\fe14a0ea66af896444b7fbdcd6b18f43\transformed\jetified-activity-ktx-1.2.3\AndroidManifest.xml:20:5-22:41
MERGED from [androidx.activity:activity-ktx:1.2.3] C:\Users\Dell\.gradle\caches\transforms-3\fe14a0ea66af896444b7fbdcd6b18f43\transformed\jetified-activity-ktx-1.2.3\AndroidManifest.xml:20:5-22:41
MERGED from [androidx.lifecycle:lifecycle-viewmodel-ktx:2.4.0] C:\Users\Dell\.gradle\caches\transforms-3\8e8593dd6ed29a7378570eea3430ddcc\transformed\jetified-lifecycle-viewmodel-ktx-2.4.0\AndroidManifest.xml:20:5-22:41
MERGED from [androidx.lifecycle:lifecycle-viewmodel-ktx:2.4.0] C:\Users\Dell\.gradle\caches\transforms-3\8e8593dd6ed29a7378570eea3430ddcc\transformed\jetified-lifecycle-viewmodel-ktx-2.4.0\AndroidManifest.xml:20:5-22:41
MERGED from [androidx.work:work-runtime-ktx:2.7.1] C:\Users\Dell\.gradle\caches\transforms-3\2ad09d66657e72027000deebd76b1764\transformed\work-runtime-ktx-2.7.1\AndroidManifest.xml:20:5-22:41
MERGED from [androidx.work:work-runtime-ktx:2.7.1] C:\Users\Dell\.gradle\caches\transforms-3\2ad09d66657e72027000deebd76b1764\transformed\work-runtime-ktx-2.7.1\AndroidManifest.xml:20:5-22:41
MERGED from [androidx.lifecycle:lifecycle-runtime-ktx:2.3.1] C:\Users\Dell\.gradle\caches\transforms-3\8ec6ecd3535ca4a2684d633995c04c23\transformed\jetified-lifecycle-runtime-ktx-2.3.1\AndroidManifest.xml:20:5-22:41
MERGED from [androidx.lifecycle:lifecycle-runtime-ktx:2.3.1] C:\Users\Dell\.gradle\caches\transforms-3\8ec6ecd3535ca4a2684d633995c04c23\transformed\jetified-lifecycle-runtime-ktx-2.3.1\AndroidManifest.xml:20:5-22:41
MERGED from [androidx.lifecycle:lifecycle-livedata-ktx:2.4.0] C:\Users\Dell\.gradle\caches\transforms-3\2d5cb2f94577bc66254c2ef25313ede3\transformed\jetified-lifecycle-livedata-ktx-2.4.0\AndroidManifest.xml:20:5-22:41
MERGED from [androidx.lifecycle:lifecycle-livedata-ktx:2.4.0] C:\Users\Dell\.gradle\caches\transforms-3\2d5cb2f94577bc66254c2ef25313ede3\transformed\jetified-lifecycle-livedata-ktx-2.4.0\AndroidManifest.xml:20:5-22:41
MERGED from [androidx.databinding:databinding-adapters:7.0.4] C:\Users\Dell\.gradle\caches\transforms-3\206bdd489159496d13fb80cc44cc3670\transformed\databinding-adapters-7.0.4\AndroidManifest.xml:20:5-44
MERGED from [androidx.databinding:databinding-adapters:7.0.4] C:\Users\Dell\.gradle\caches\transforms-3\206bdd489159496d13fb80cc44cc3670\transformed\databinding-adapters-7.0.4\AndroidManifest.xml:20:5-44
MERGED from [androidx.databinding:databinding-runtime:7.0.4] C:\Users\Dell\.gradle\caches\transforms-3\c3eb208a1ca8fe92c6fdd5f34af5458b\transformed\databinding-runtime-7.0.4\AndroidManifest.xml:20:5-44
MERGED from [androidx.databinding:databinding-runtime:7.0.4] C:\Users\Dell\.gradle\caches\transforms-3\c3eb208a1ca8fe92c6fdd5f34af5458b\transformed\databinding-runtime-7.0.4\AndroidManifest.xml:20:5-44
MERGED from [androidx.navigation:navigation-ui:2.3.5] C:\Users\Dell\.gradle\caches\transforms-3\2edc4294c40f61ecd91721dba8cc441b\transformed\navigation-ui-2.3.5\AndroidManifest.xml:20:5-22:41
MERGED from [androidx.navigation:navigation-ui:2.3.5] C:\Users\Dell\.gradle\caches\transforms-3\2edc4294c40f61ecd91721dba8cc441b\transformed\navigation-ui-2.3.5\AndroidManifest.xml:20:5-22:41
MERGED from [com.google.android.material:material:1.5.0] C:\Users\Dell\.gradle\caches\transforms-3\d3ac8f318150a53c9b2259ddc4d80d53\transformed\material-1.5.0\AndroidManifest.xml:20:5-44
MERGED from [com.google.android.material:material:1.5.0] C:\Users\Dell\.gradle\caches\transforms-3\d3ac8f318150a53c9b2259ddc4d80d53\transformed\material-1.5.0\AndroidManifest.xml:20:5-44
MERGED from [androidx.constraintlayout:constraintlayout:2.1.3] C:\Users\Dell\.gradle\caches\transforms-3\4c962d02ac95bf2a2aca3c78edd52989\transformed\constraintlayout-2.1.3\AndroidManifest.xml:5:5-7:41
MERGED from [androidx.constraintlayout:constraintlayout:2.1.3] C:\Users\Dell\.gradle\caches\transforms-3\4c962d02ac95bf2a2aca3c78edd52989\transformed\constraintlayout-2.1.3\AndroidManifest.xml:5:5-7:41
MERGED from [com.google.dagger:dagger-android-support:2.40.5] C:\Users\Dell\.gradle\caches\transforms-3\4c561b6529d34a31b7ef6126889c46e8\transformed\jetified-dagger-android-support-2.40.5\AndroidManifest.xml:20:5-44
MERGED from [com.google.dagger:dagger-android-support:2.40.5] C:\Users\Dell\.gradle\caches\transforms-3\4c561b6529d34a31b7ef6126889c46e8\transformed\jetified-dagger-android-support-2.40.5\AndroidManifest.xml:20:5-44
MERGED from [androidx.appcompat:appcompat:1.4.1] C:\Users\Dell\.gradle\caches\transforms-3\33e2382e2a4b05258454807d965391b6\transformed\appcompat-1.4.1\AndroidManifest.xml:20:5-22:41
MERGED from [androidx.appcompat:appcompat:1.4.1] C:\Users\Dell\.gradle\caches\transforms-3\33e2382e2a4b05258454807d965391b6\transformed\appcompat-1.4.1\AndroidManifest.xml:20:5-22:41
MERGED from [androidx.cardview:cardview:1.0.0] C:\Users\Dell\.gradle\caches\transforms-3\b7312bcc4ffce1e59f8fe6e4255d2ae0\transformed\cardview-1.0.0\AndroidManifest.xml:20:5-44
MERGED from [androidx.cardview:cardview:1.0.0] C:\Users\Dell\.gradle\caches\transforms-3\b7312bcc4ffce1e59f8fe6e4255d2ae0\transformed\cardview-1.0.0\AndroidManifest.xml:20:5-44
MERGED from [androidx.viewpager2:viewpager2:1.0.0] C:\Users\Dell\.gradle\caches\transforms-3\7fc62de299254cc27ecb9d1afab28a33\transformed\jetified-viewpager2-1.0.0\AndroidManifest.xml:20:5-22:41
MERGED from [androidx.viewpager2:viewpager2:1.0.0] C:\Users\Dell\.gradle\caches\transforms-3\7fc62de299254cc27ecb9d1afab28a33\transformed\jetified-viewpager2-1.0.0\AndroidManifest.xml:20:5-22:41
MERGED from [androidx.recyclerview:recyclerview:1.2.1] C:\Users\Dell\.gradle\caches\transforms-3\1181acee24020d87f82bdb864aa1c652\transformed\recyclerview-1.2.1\AndroidManifest.xml:20:5-22:41
MERGED from [androidx.recyclerview:recyclerview:1.2.1] C:\Users\Dell\.gradle\caches\transforms-3\1181acee24020d87f82bdb864aa1c652\transformed\recyclerview-1.2.1\AndroidManifest.xml:20:5-22:41
MERGED from [androidx.test:core:1.4.0] C:\Users\Dell\.gradle\caches\transforms-3\8352d3479711a06a084bcc82169552bb\transformed\jetified-core-1.4.0\AndroidManifest.xml:20:5-22:41
MERGED from [androidx.test:core:1.4.0] C:\Users\Dell\.gradle\caches\transforms-3\8352d3479711a06a084bcc82169552bb\transformed\jetified-core-1.4.0\AndroidManifest.xml:20:5-22:41
MERGED from [androidx.lifecycle:lifecycle-extensions:2.2.0] C:\Users\Dell\.gradle\caches\transforms-3\5fc2d1aad8b8f6a3e6938afa1b408a82\transformed\lifecycle-extensions-2.2.0\AndroidManifest.xml:20:5-22:41
MERGED from [androidx.lifecycle:lifecycle-extensions:2.2.0] C:\Users\Dell\.gradle\caches\transforms-3\5fc2d1aad8b8f6a3e6938afa1b408a82\transformed\lifecycle-extensions-2.2.0\AndroidManifest.xml:20:5-22:41
MERGED from [androidx.legacy:legacy-support-v4:1.0.0] C:\Users\Dell\.gradle\caches\transforms-3\9ace586c07eebad8bd3c701b3ad86824\transformed\legacy-support-v4-1.0.0\AndroidManifest.xml:20:5-44
MERGED from [androidx.legacy:legacy-support-v4:1.0.0] C:\Users\Dell\.gradle\caches\transforms-3\9ace586c07eebad8bd3c701b3ad86824\transformed\legacy-support-v4-1.0.0\AndroidManifest.xml:20:5-44
MERGED from [androidx.navigation:navigation-fragment:2.3.5] C:\Users\Dell\.gradle\caches\transforms-3\01121329d08083f3f54c6d6e8fda0168\transformed\navigation-fragment-2.3.5\AndroidManifest.xml:20:5-22:41
MERGED from [androidx.navigation:navigation-fragment:2.3.5] C:\Users\Dell\.gradle\caches\transforms-3\01121329d08083f3f54c6d6e8fda0168\transformed\navigation-fragment-2.3.5\AndroidManifest.xml:20:5-22:41
MERGED from [androidx.fragment:fragment:1.4.0] C:\Users\Dell\.gradle\caches\transforms-3\fd3481a3fd29332c2a918359f817fe43\transformed\fragment-1.4.0\AndroidManifest.xml:20:5-22:41
MERGED from [androidx.fragment:fragment:1.4.0] C:\Users\Dell\.gradle\caches\transforms-3\fd3481a3fd29332c2a918359f817fe43\transformed\fragment-1.4.0\AndroidManifest.xml:20:5-22:41
MERGED from [androidx.navigation:navigation-runtime:2.3.5] C:\Users\Dell\.gradle\caches\transforms-3\f9911825e65583f8971a4176e5eb4a3a\transformed\navigation-runtime-2.3.5\AndroidManifest.xml:20:5-22:41
MERGED from [androidx.navigation:navigation-runtime:2.3.5] C:\Users\Dell\.gradle\caches\transforms-3\f9911825e65583f8971a4176e5eb4a3a\transformed\navigation-runtime-2.3.5\AndroidManifest.xml:20:5-22:41
MERGED from [androidx.activity:activity:1.3.1] C:\Users\Dell\.gradle\caches\transforms-3\fea675a072ff641806f9d687d8fd96f0\transformed\jetified-activity-1.3.1\AndroidManifest.xml:20:5-22:41
MERGED from [androidx.activity:activity:1.3.1] C:\Users\Dell\.gradle\caches\transforms-3\fea675a072ff641806f9d687d8fd96f0\transformed\jetified-activity-1.3.1\AndroidManifest.xml:20:5-22:41
MERGED from [androidx.lifecycle:lifecycle-viewmodel-savedstate:2.3.1] C:\Users\Dell\.gradle\caches\transforms-3\0ee9a97f95facb914f955c1061d5c5d7\transformed\jetified-lifecycle-viewmodel-savedstate-2.3.1\AndroidManifest.xml:20:5-22:41
MERGED from [androidx.lifecycle:lifecycle-viewmodel-savedstate:2.3.1] C:\Users\Dell\.gradle\caches\transforms-3\0ee9a97f95facb914f955c1061d5c5d7\transformed\jetified-lifecycle-viewmodel-savedstate-2.3.1\AndroidManifest.xml:20:5-22:41
MERGED from [androidx.savedstate:savedstate-ktx:1.1.0] C:\Users\Dell\.gradle\caches\transforms-3\c5eee14e70ecfa2539031aad01936796\transformed\jetified-savedstate-ktx-1.1.0\AndroidManifest.xml:20:5-22:41
MERGED from [androidx.savedstate:savedstate-ktx:1.1.0] C:\Users\Dell\.gradle\caches\transforms-3\c5eee14e70ecfa2539031aad01936796\transformed\jetified-savedstate-ktx-1.1.0\AndroidManifest.xml:20:5-22:41
MERGED from [androidx.savedstate:savedstate:1.1.0] C:\Users\Dell\.gradle\caches\transforms-3\f0953bddbc0578a50837236a32c99fa5\transformed\jetified-savedstate-1.1.0\AndroidManifest.xml:20:5-22:41
MERGED from [androidx.savedstate:savedstate:1.1.0] C:\Users\Dell\.gradle\caches\transforms-3\f0953bddbc0578a50837236a32c99fa5\transformed\jetified-savedstate-1.1.0\AndroidManifest.xml:20:5-22:41
MERGED from [androidx.work:work-runtime:2.7.1] C:\Users\Dell\.gradle\caches\transforms-3\68cc233edb7c23ffea174cb2f5273bb3\transformed\work-runtime-2.7.1\AndroidManifest.xml:21:5-23:41
MERGED from [androidx.work:work-runtime:2.7.1] C:\Users\Dell\.gradle\caches\transforms-3\68cc233edb7c23ffea174cb2f5273bb3\transformed\work-runtime-2.7.1\AndroidManifest.xml:21:5-23:41
MERGED from [androidx.legacy:legacy-support-core-ui:1.0.0] C:\Users\Dell\.gradle\caches\transforms-3\2376053718bd38336c6541f144da445e\transformed\legacy-support-core-ui-1.0.0\AndroidManifest.xml:20:5-44
MERGED from [androidx.legacy:legacy-support-core-ui:1.0.0] C:\Users\Dell\.gradle\caches\transforms-3\2376053718bd38336c6541f144da445e\transformed\legacy-support-core-ui-1.0.0\AndroidManifest.xml:20:5-44
MERGED from [androidx.dynamicanimation:dynamicanimation:1.0.0] C:\Users\Dell\.gradle\caches\transforms-3\aa20c6c47d7e7990794842b3e050509d\transformed\dynamicanimation-1.0.0\AndroidManifest.xml:20:5-44
MERGED from [androidx.dynamicanimation:dynamicanimation:1.0.0] C:\Users\Dell\.gradle\caches\transforms-3\aa20c6c47d7e7990794842b3e050509d\transformed\dynamicanimation-1.0.0\AndroidManifest.xml:20:5-44
MERGED from [androidx.legacy:legacy-support-core-utils:1.0.0] C:\Users\Dell\.gradle\caches\transforms-3\c1e3387be376640941afd43547b841d4\transformed\legacy-support-core-utils-1.0.0\AndroidManifest.xml:20:5-44
MERGED from [androidx.legacy:legacy-support-core-utils:1.0.0] C:\Users\Dell\.gradle\caches\transforms-3\c1e3387be376640941afd43547b841d4\transformed\legacy-support-core-utils-1.0.0\AndroidManifest.xml:20:5-44
MERGED from [androidx.loader:loader:1.0.0] C:\Users\Dell\.gradle\caches\transforms-3\6a6c7fc09437ba9766ed9bc28f8f6e7e\transformed\loader-1.0.0\AndroidManifest.xml:20:5-44
MERGED from [androidx.loader:loader:1.0.0] C:\Users\Dell\.gradle\caches\transforms-3\6a6c7fc09437ba9766ed9bc28f8f6e7e\transformed\loader-1.0.0\AndroidManifest.xml:20:5-44
MERGED from [androidx.lifecycle:lifecycle-livedata:2.4.0] C:\Users\Dell\.gradle\caches\transforms-3\9989f7907aa53b20df511016558222ee\transformed\lifecycle-livedata-2.4.0\AndroidManifest.xml:20:5-22:41
MERGED from [androidx.lifecycle:lifecycle-livedata:2.4.0] C:\Users\Dell\.gradle\caches\transforms-3\9989f7907aa53b20df511016558222ee\transformed\lifecycle-livedata-2.4.0\AndroidManifest.xml:20:5-22:41
MERGED from [androidx.lifecycle:lifecycle-livedata-core-ktx:2.4.0] C:\Users\Dell\.gradle\caches\transforms-3\c91568bdfaa39b402912975cfb6c2ea6\transformed\jetified-lifecycle-livedata-core-ktx-2.4.0\AndroidManifest.xml:20:5-22:41
MERGED from [androidx.lifecycle:lifecycle-livedata-core-ktx:2.4.0] C:\Users\Dell\.gradle\caches\transforms-3\c91568bdfaa39b402912975cfb6c2ea6\transformed\jetified-lifecycle-livedata-core-ktx-2.4.0\AndroidManifest.xml:20:5-22:41
MERGED from [androidx.lifecycle:lifecycle-livedata-core:2.4.0] C:\Users\Dell\.gradle\caches\transforms-3\863f00db75988be54ab230271cf099e7\transformed\lifecycle-livedata-core-2.4.0\AndroidManifest.xml:20:5-22:41
MERGED from [androidx.lifecycle:lifecycle-livedata-core:2.4.0] C:\Users\Dell\.gradle\caches\transforms-3\863f00db75988be54ab230271cf099e7\transformed\lifecycle-livedata-core-2.4.0\AndroidManifest.xml:20:5-22:41
MERGED from [androidx.appcompat:appcompat-resources:1.4.1] C:\Users\Dell\.gradle\caches\transforms-3\7694a124288ce71fc340b1370acc230e\transformed\jetified-appcompat-resources-1.4.1\AndroidManifest.xml:20:5-22:41
MERGED from [androidx.appcompat:appcompat-resources:1.4.1] C:\Users\Dell\.gradle\caches\transforms-3\7694a124288ce71fc340b1370acc230e\transformed\jetified-appcompat-resources-1.4.1\AndroidManifest.xml:20:5-22:41
MERGED from [androidx.emoji2:emoji2-views-helper:1.0.0] C:\Users\Dell\.gradle\caches\transforms-3\a4dc37779c45f630f576fffd880ed8bf\transformed\jetified-emoji2-views-helper-1.0.0\AndroidManifest.xml:20:5-22:41
MERGED from [androidx.emoji2:emoji2-views-helper:1.0.0] C:\Users\Dell\.gradle\caches\transforms-3\a4dc37779c45f630f576fffd880ed8bf\transformed\jetified-emoji2-views-helper-1.0.0\AndroidManifest.xml:20:5-22:41
MERGED from [androidx.emoji2:emoji2:1.0.0] C:\Users\Dell\.gradle\caches\transforms-3\6e6a280a6dae4397ab2d83c1b19a23ec\transformed\jetified-emoji2-1.0.0\AndroidManifest.xml:21:5-23:41
MERGED from [androidx.emoji2:emoji2:1.0.0] C:\Users\Dell\.gradle\caches\transforms-3\6e6a280a6dae4397ab2d83c1b19a23ec\transformed\jetified-emoji2-1.0.0\AndroidManifest.xml:21:5-23:41
MERGED from [androidx.media:media:1.0.0] C:\Users\Dell\.gradle\caches\transforms-3\567881ef76cf4e7997f3479352387932\transformed\media-1.0.0\AndroidManifest.xml:20:5-44
MERGED from [androidx.media:media:1.0.0] C:\Users\Dell\.gradle\caches\transforms-3\567881ef76cf4e7997f3479352387932\transformed\media-1.0.0\AndroidManifest.xml:20:5-44
MERGED from [androidx.drawerlayout:drawerlayout:1.1.1] C:\Users\Dell\.gradle\caches\transforms-3\9f21449c63f6bb9da330282dc4708115\transformed\drawerlayout-1.1.1\AndroidManifest.xml:20:5-22:41
MERGED from [androidx.drawerlayout:drawerlayout:1.1.1] C:\Users\Dell\.gradle\caches\transforms-3\9f21449c63f6bb9da330282dc4708115\transformed\drawerlayout-1.1.1\AndroidManifest.xml:20:5-22:41
MERGED from [androidx.coordinatorlayout:coordinatorlayout:1.1.0] C:\Users\Dell\.gradle\caches\transforms-3\77265d74cfd22c72b5f8636452fc045a\transformed\coordinatorlayout-1.1.0\AndroidManifest.xml:20:5-22:41
MERGED from [androidx.coordinatorlayout:coordinatorlayout:1.1.0] C:\Users\Dell\.gradle\caches\transforms-3\77265d74cfd22c72b5f8636452fc045a\transformed\coordinatorlayout-1.1.0\AndroidManifest.xml:20:5-22:41
MERGED from [androidx.vectordrawable:vectordrawable-animated:1.1.0] C:\Users\Dell\.gradle\caches\transforms-3\73da512849f415d0dd664bfe81dc04fc\transformed\vectordrawable-animated-1.1.0\AndroidManifest.xml:20:5-22:41
MERGED from [androidx.vectordrawable:vectordrawable-animated:1.1.0] C:\Users\Dell\.gradle\caches\transforms-3\73da512849f415d0dd664bfe81dc04fc\transformed\vectordrawable-animated-1.1.0\AndroidManifest.xml:20:5-22:41
MERGED from [androidx.vectordrawable:vectordrawable:1.1.0] C:\Users\Dell\.gradle\caches\transforms-3\cf7998edd8b6de7ea68289daf58ac42b\transformed\vectordrawable-1.1.0\AndroidManifest.xml:20:5-22:41
MERGED from [androidx.vectordrawable:vectordrawable:1.1.0] C:\Users\Dell\.gradle\caches\transforms-3\cf7998edd8b6de7ea68289daf58ac42b\transformed\vectordrawable-1.1.0\AndroidManifest.xml:20:5-22:41
MERGED from [androidx.navigation:navigation-common-ktx:2.3.5] C:\Users\Dell\.gradle\caches\transforms-3\cac08617284c8cde5d71a92bb0c3663f\transformed\navigation-common-ktx-2.3.5\AndroidManifest.xml:20:5-22:41
MERGED from [androidx.navigation:navigation-common-ktx:2.3.5] C:\Users\Dell\.gradle\caches\transforms-3\cac08617284c8cde5d71a92bb0c3663f\transformed\navigation-common-ktx-2.3.5\AndroidManifest.xml:20:5-22:41
MERGED from [androidx.core:core-ktx:1.2.0] C:\Users\Dell\.gradle\caches\transforms-3\a25f05e7ebdb4a9a75f35ef003f74901\transformed\jetified-core-ktx-1.2.0\AndroidManifest.xml:5:5-7:41
MERGED from [androidx.core:core-ktx:1.2.0] C:\Users\Dell\.gradle\caches\transforms-3\a25f05e7ebdb4a9a75f35ef003f74901\transformed\jetified-core-ktx-1.2.0\AndroidManifest.xml:5:5-7:41
MERGED from [androidx.viewpager:viewpager:1.0.0] C:\Users\Dell\.gradle\caches\transforms-3\aaf995519d2183f05954f857b3455a99\transformed\viewpager-1.0.0\AndroidManifest.xml:20:5-44
MERGED from [androidx.viewpager:viewpager:1.0.0] C:\Users\Dell\.gradle\caches\transforms-3\aaf995519d2183f05954f857b3455a99\transformed\viewpager-1.0.0\AndroidManifest.xml:20:5-44
MERGED from [androidx.slidingpanelayout:slidingpanelayout:1.0.0] C:\Users\Dell\.gradle\caches\transforms-3\f5af907d3a8025ec543491a87bbcfe65\transformed\slidingpanelayout-1.0.0\AndroidManifest.xml:20:5-44
MERGED from [androidx.slidingpanelayout:slidingpanelayout:1.0.0] C:\Users\Dell\.gradle\caches\transforms-3\f5af907d3a8025ec543491a87bbcfe65\transformed\slidingpanelayout-1.0.0\AndroidManifest.xml:20:5-44
MERGED from [androidx.customview:customview:1.1.0] C:\Users\Dell\.gradle\caches\transforms-3\87d2b1e65061c7dfb56d371f536e39ec\transformed\customview-1.1.0\AndroidManifest.xml:20:5-22:41
MERGED from [androidx.customview:customview:1.1.0] C:\Users\Dell\.gradle\caches\transforms-3\87d2b1e65061c7dfb56d371f536e39ec\transformed\customview-1.1.0\AndroidManifest.xml:20:5-22:41
MERGED from [androidx.transition:transition:1.3.0] C:\Users\Dell\.gradle\caches\transforms-3\0d094630f710bf0a20e15ed3bb40523a\transformed\transition-1.3.0\AndroidManifest.xml:20:5-22:41
MERGED from [androidx.transition:transition:1.3.0] C:\Users\Dell\.gradle\caches\transforms-3\0d094630f710bf0a20e15ed3bb40523a\transformed\transition-1.3.0\AndroidManifest.xml:20:5-22:41
MERGED from [androidx.swiperefreshlayout:swiperefreshlayout:1.0.0] C:\Users\Dell\.gradle\caches\transforms-3\491f9d833f2a255b3572e80be4f81706\transformed\swiperefreshlayout-1.0.0\AndroidManifest.xml:20:5-44
MERGED from [androidx.swiperefreshlayout:swiperefreshlayout:1.0.0] C:\Users\Dell\.gradle\caches\transforms-3\491f9d833f2a255b3572e80be4f81706\transformed\swiperefreshlayout-1.0.0\AndroidManifest.xml:20:5-44
MERGED from [androidx.asynclayoutinflater:asynclayoutinflater:1.0.0] C:\Users\Dell\.gradle\caches\transforms-3\e1480f6e10f4937943c053c9bbe90c25\transformed\asynclayoutinflater-1.0.0\AndroidManifest.xml:20:5-44
MERGED from [androidx.asynclayoutinflater:asynclayoutinflater:1.0.0] C:\Users\Dell\.gradle\caches\transforms-3\e1480f6e10f4937943c053c9bbe90c25\transformed\asynclayoutinflater-1.0.0\AndroidManifest.xml:20:5-44
MERGED from [androidx.navigation:navigation-common:2.3.5] C:\Users\Dell\.gradle\caches\transforms-3\e2b2ee1978962002b75a56cd36369320\transformed\navigation-common-2.3.5\AndroidManifest.xml:20:5-22:41
MERGED from [androidx.navigation:navigation-common:2.3.5] C:\Users\Dell\.gradle\caches\transforms-3\e2b2ee1978962002b75a56cd36369320\transformed\navigation-common-2.3.5\AndroidManifest.xml:20:5-22:41
MERGED from [androidx.core:core:1.7.0] C:\Users\Dell\.gradle\caches\transforms-3\de6558bdf3199a891106e54fae2fc697\transformed\core-1.7.0\AndroidManifest.xml:20:5-22:41
MERGED from [androidx.core:core:1.7.0] C:\Users\Dell\.gradle\caches\transforms-3\de6558bdf3199a891106e54fae2fc697\transformed\core-1.7.0\AndroidManifest.xml:20:5-22:41
MERGED from [androidx.lifecycle:lifecycle-service:2.2.0] C:\Users\Dell\.gradle\caches\transforms-3\bb97a431255515b42e6abd9bf854e5d9\transformed\jetified-lifecycle-service-2.2.0\AndroidManifest.xml:20:5-22:41
MERGED from [androidx.lifecycle:lifecycle-service:2.2.0] C:\Users\Dell\.gradle\caches\transforms-3\bb97a431255515b42e6abd9bf854e5d9\transformed\jetified-lifecycle-service-2.2.0\AndroidManifest.xml:20:5-22:41
MERGED from [androidx.lifecycle:lifecycle-process:2.4.0] C:\Users\Dell\.gradle\caches\transforms-3\158b69580b367293f324ef966c720e99\transformed\jetified-lifecycle-process-2.4.0\AndroidManifest.xml:21:5-23:41
MERGED from [androidx.lifecycle:lifecycle-process:2.4.0] C:\Users\Dell\.gradle\caches\transforms-3\158b69580b367293f324ef966c720e99\transformed\jetified-lifecycle-process-2.4.0\AndroidManifest.xml:21:5-23:41
MERGED from [androidx.lifecycle:lifecycle-runtime:2.4.0] C:\Users\Dell\.gradle\caches\transforms-3\bd547d48812cd60d433182030485618f\transformed\lifecycle-runtime-2.4.0\AndroidManifest.xml:20:5-22:41
MERGED from [androidx.lifecycle:lifecycle-runtime:2.4.0] C:\Users\Dell\.gradle\caches\transforms-3\bd547d48812cd60d433182030485618f\transformed\lifecycle-runtime-2.4.0\AndroidManifest.xml:20:5-22:41
MERGED from [androidx.databinding:viewbinding:7.0.4] C:\Users\Dell\.gradle\caches\transforms-3\bf9898a9167509125074586d20a66a66\transformed\jetified-viewbinding-7.0.4\AndroidManifest.xml:20:5-44
MERGED from [androidx.databinding:viewbinding:7.0.4] C:\Users\Dell\.gradle\caches\transforms-3\bf9898a9167509125074586d20a66a66\transformed\jetified-viewbinding-7.0.4\AndroidManifest.xml:20:5-44
MERGED from [androidx.cursoradapter:cursoradapter:1.0.0] C:\Users\Dell\.gradle\caches\transforms-3\63d751e31e7fc86353a3472fc8366a61\transformed\cursoradapter-1.0.0\AndroidManifest.xml:20:5-44
MERGED from [androidx.cursoradapter:cursoradapter:1.0.0] C:\Users\Dell\.gradle\caches\transforms-3\63d751e31e7fc86353a3472fc8366a61\transformed\cursoradapter-1.0.0\AndroidManifest.xml:20:5-44
MERGED from [androidx.room:room-runtime:2.4.1] C:\Users\Dell\.gradle\caches\transforms-3\caff5b252ea7a3940fe686b4508c9653\transformed\room-runtime-2.4.1\AndroidManifest.xml:20:5-22:41
MERGED from [androidx.room:room-runtime:2.4.1] C:\Users\Dell\.gradle\caches\transforms-3\caff5b252ea7a3940fe686b4508c9653\transformed\room-runtime-2.4.1\AndroidManifest.xml:20:5-22:41
MERGED from [androidx.sqlite:sqlite-framework:2.2.0] C:\Users\Dell\.gradle\caches\transforms-3\03b29dfff9e42a8d93ea8a1e51e7ab14\transformed\sqlite-framework-2.2.0\AndroidManifest.xml:20:5-22:41
MERGED from [androidx.sqlite:sqlite-framework:2.2.0] C:\Users\Dell\.gradle\caches\transforms-3\03b29dfff9e42a8d93ea8a1e51e7ab14\transformed\sqlite-framework-2.2.0\AndroidManifest.xml:20:5-22:41
MERGED from [androidx.sqlite:sqlite:2.2.0] C:\Users\Dell\.gradle\caches\transforms-3\18617e7ad292d88d9645b9f7e712b64f\transformed\sqlite-2.2.0\AndroidManifest.xml:20:5-22:41
MERGED from [androidx.sqlite:sqlite:2.2.0] C:\Users\Dell\.gradle\caches\transforms-3\18617e7ad292d88d9645b9f7e712b64f\transformed\sqlite-2.2.0\AndroidManifest.xml:20:5-22:41
MERGED from [androidx.lifecycle:lifecycle-viewmodel:2.4.0] C:\Users\Dell\.gradle\caches\transforms-3\8d23a09020180cac711befa1f44eba2d\transformed\lifecycle-viewmodel-2.4.0\AndroidManifest.xml:20:5-22:41
MERGED from [androidx.lifecycle:lifecycle-viewmodel:2.4.0] C:\Users\Dell\.gradle\caches\transforms-3\8d23a09020180cac711befa1f44eba2d\transformed\lifecycle-viewmodel-2.4.0\AndroidManifest.xml:20:5-22:41
MERGED from [com.google.dagger:dagger-android:2.40.5] C:\Users\Dell\.gradle\caches\transforms-3\fc71486e914ba093cfd57e2917aa7d9b\transformed\jetified-dagger-android-2.40.5\AndroidManifest.xml:20:5-44
MERGED from [com.google.dagger:dagger-android:2.40.5] C:\Users\Dell\.gradle\caches\transforms-3\fc71486e914ba093cfd57e2917aa7d9b\transformed\jetified-dagger-android-2.40.5\AndroidManifest.xml:20:5-44
MERGED from [androidx.test:monitor:1.4.0] C:\Users\Dell\.gradle\caches\transforms-3\6c16eec4a2fe7b86b41be8ae720af167\transformed\monitor-1.4.0\AndroidManifest.xml:20:5-22:41
MERGED from [androidx.test:monitor:1.4.0] C:\Users\Dell\.gradle\caches\transforms-3\6c16eec4a2fe7b86b41be8ae720af167\transformed\monitor-1.4.0\AndroidManifest.xml:20:5-22:41
MERGED from [androidx.arch.core:core-runtime:2.1.0] C:\Users\Dell\.gradle\caches\transforms-3\7b641a806dc522a69f5852c509639d81\transformed\core-runtime-2.1.0\AndroidManifest.xml:20:5-22:41
MERGED from [androidx.arch.core:core-runtime:2.1.0] C:\Users\Dell\.gradle\caches\transforms-3\7b641a806dc522a69f5852c509639d81\transformed\core-runtime-2.1.0\AndroidManifest.xml:20:5-22:41
MERGED from [androidx.versionedparcelable:versionedparcelable:1.1.1] C:\Users\Dell\.gradle\caches\transforms-3\e783d309b9d801dace9261f9b3f59629\transformed\versionedparcelable-1.1.1\AndroidManifest.xml:20:5-22:41
MERGED from [androidx.versionedparcelable:versionedparcelable:1.1.1] C:\Users\Dell\.gradle\caches\transforms-3\e783d309b9d801dace9261f9b3f59629\transformed\versionedparcelable-1.1.1\AndroidManifest.xml:20:5-22:41
MERGED from [androidx.startup:startup-runtime:1.0.0] C:\Users\Dell\.gradle\caches\transforms-3\6c45329d90b30e24d21f8e70e361c521\transformed\jetified-startup-runtime-1.0.0\AndroidManifest.xml:21:5-23:41
MERGED from [androidx.startup:startup-runtime:1.0.0] C:\Users\Dell\.gradle\caches\transforms-3\6c45329d90b30e24d21f8e70e361c521\transformed\jetified-startup-runtime-1.0.0\AndroidManifest.xml:21:5-23:41
MERGED from [androidx.documentfile:documentfile:1.0.0] C:\Users\Dell\.gradle\caches\transforms-3\b049b2b3fdf3b6905dd430b940e81457\transformed\documentfile-1.0.0\AndroidManifest.xml:20:5-44
MERGED from [androidx.documentfile:documentfile:1.0.0] C:\Users\Dell\.gradle\caches\transforms-3\b049b2b3fdf3b6905dd430b940e81457\transformed\documentfile-1.0.0\AndroidManifest.xml:20:5-44
MERGED from [androidx.localbroadcastmanager:localbroadcastmanager:1.0.0] C:\Users\Dell\.gradle\caches\transforms-3\05d515ab41a066092915730cd2eee40c\transformed\localbroadcastmanager-1.0.0\AndroidManifest.xml:20:5-44
MERGED from [androidx.localbroadcastmanager:localbroadcastmanager:1.0.0] C:\Users\Dell\.gradle\caches\transforms-3\05d515ab41a066092915730cd2eee40c\transformed\localbroadcastmanager-1.0.0\AndroidManifest.xml:20:5-44
MERGED from [androidx.print:print:1.0.0] C:\Users\Dell\.gradle\caches\transforms-3\9084d33958db52ce5d05fe4c692e7e26\transformed\print-1.0.0\AndroidManifest.xml:20:5-44
MERGED from [androidx.print:print:1.0.0] C:\Users\Dell\.gradle\caches\transforms-3\9084d33958db52ce5d05fe4c692e7e26\transformed\print-1.0.0\AndroidManifest.xml:20:5-44
MERGED from [androidx.interpolator:interpolator:1.0.0] C:\Users\Dell\.gradle\caches\transforms-3\abcba4dbc0f13cb879de736782034c65\transformed\interpolator-1.0.0\AndroidManifest.xml:20:5-44
MERGED from [androidx.interpolator:interpolator:1.0.0] C:\Users\Dell\.gradle\caches\transforms-3\abcba4dbc0f13cb879de736782034c65\transformed\interpolator-1.0.0\AndroidManifest.xml:20:5-44
MERGED from [androidx.tracing:tracing:1.0.0] C:\Users\Dell\.gradle\caches\transforms-3\38b52279abe28eae0147a8c8e7cdd136\transformed\jetified-tracing-1.0.0\AndroidManifest.xml:20:5-22:41
MERGED from [androidx.tracing:tracing:1.0.0] C:\Users\Dell\.gradle\caches\transforms-3\38b52279abe28eae0147a8c8e7cdd136\transformed\jetified-tracing-1.0.0\AndroidManifest.xml:20:5-22:41
MERGED from [com.jakewharton.timber:timber:5.0.1] C:\Users\Dell\.gradle\caches\transforms-3\1b4f500d159ff632d72d7437d30c9e54\transformed\jetified-timber-5.0.1\AndroidManifest.xml:5:5-44
MERGED from [com.jakewharton.timber:timber:5.0.1] C:\Users\Dell\.gradle\caches\transforms-3\1b4f500d159ff632d72d7437d30c9e54\transformed\jetified-timber-5.0.1\AndroidManifest.xml:5:5-44
MERGED from [androidx.annotation:annotation-experimental:1.1.0] C:\Users\Dell\.gradle\caches\transforms-3\4e4808df0c0a6665677736c980a2a366\transformed\jetified-annotation-experimental-1.1.0\AndroidManifest.xml:20:5-22:41
MERGED from [androidx.annotation:annotation-experimental:1.1.0] C:\Users\Dell\.gradle\caches\transforms-3\4e4808df0c0a6665677736c980a2a366\transformed\jetified-annotation-experimental-1.1.0\AndroidManifest.xml:20:5-22:41
MERGED from [com.google.dagger:dagger-lint-aar:2.40.5] C:\Users\Dell\.gradle\caches\transforms-3\c054ded86ccca4aa767e459148370f0b\transformed\jetified-dagger-lint-aar-2.40.5\AndroidManifest.xml:18:3-42
MERGED from [com.google.dagger:dagger-lint-aar:2.40.5] C:\Users\Dell\.gradle\caches\transforms-3\c054ded86ccca4aa767e459148370f0b\transformed\jetified-dagger-lint-aar-2.40.5\AndroidManifest.xml:18:3-42
INJECTED from D:\Project\Android\inventory\app\src\main\AndroidManifest.xml
INJECTED from D:\Project\Android\inventory\app\src\main\AndroidManifest.xml
	tools:overrideLibrary
		ADDED from [androidx.fragment:fragment-testing:1.4.0] C:\Users\Dell\.gradle\caches\transforms-3\5a0f4a6b9c30d088dc29c92774267bf5\transformed\jetified-fragment-testing-1.4.0\AndroidManifest.xml:23:9-51
	android:targetSdkVersion
		INJECTED from D:\Project\Android\inventory\app\src\main\AndroidManifest.xml
		ADDED from D:\Project\Android\inventory\app\src\main\AndroidManifest.xml
		INJECTED from D:\Project\Android\inventory\app\src\main\AndroidManifest.xml
	android:minSdkVersion
		INJECTED from D:\Project\Android\inventory\app\src\main\AndroidManifest.xml
		ADDED from D:\Project\Android\inventory\app\src\main\AndroidManifest.xml
		INJECTED from D:\Project\Android\inventory\app\src\main\AndroidManifest.xml
uses-permission#android.permission.REORDER_TASKS
ADDED from [androidx.fragment:fragment-testing:1.4.0] C:\Users\Dell\.gradle\caches\transforms-3\5a0f4a6b9c30d088dc29c92774267bf5\transformed\jetified-fragment-testing-1.4.0\AndroidManifest.xml:25:5-72
MERGED from [androidx.test:core:1.4.0] C:\Users\Dell\.gradle\caches\transforms-3\8352d3479711a06a084bcc82169552bb\transformed\jetified-core-1.4.0\AndroidManifest.xml:24:5-72
MERGED from [androidx.test:core:1.4.0] C:\Users\Dell\.gradle\caches\transforms-3\8352d3479711a06a084bcc82169552bb\transformed\jetified-core-1.4.0\AndroidManifest.xml:24:5-72
	android:name
		ADDED from [androidx.fragment:fragment-testing:1.4.0] C:\Users\Dell\.gradle\caches\transforms-3\5a0f4a6b9c30d088dc29c92774267bf5\transformed\jetified-fragment-testing-1.4.0\AndroidManifest.xml:25:22-69
activity#androidx.fragment.app.testing.FragmentScenario$EmptyFragmentActivity
ADDED from [androidx.fragment:fragment-testing:1.4.0] C:\Users\Dell\.gradle\caches\transforms-3\5a0f4a6b9c30d088dc29c92774267bf5\transformed\jetified-fragment-testing-1.4.0\AndroidManifest.xml:28:9-37:20
	android:multiprocess
		ADDED from [androidx.fragment:fragment-testing:1.4.0] C:\Users\Dell\.gradle\caches\transforms-3\5a0f4a6b9c30d088dc29c92774267bf5\transformed\jetified-fragment-testing-1.4.0\AndroidManifest.xml:31:13-40
	android:exported
		ADDED from [androidx.fragment:fragment-testing:1.4.0] C:\Users\Dell\.gradle\caches\transforms-3\5a0f4a6b9c30d088dc29c92774267bf5\transformed\jetified-fragment-testing-1.4.0\AndroidManifest.xml:30:13-36
	android:theme
		ADDED from [androidx.fragment:fragment-testing:1.4.0] C:\Users\Dell\.gradle\caches\transforms-3\5a0f4a6b9c30d088dc29c92774267bf5\transformed\jetified-fragment-testing-1.4.0\AndroidManifest.xml:33:13-78
	android:taskAffinity
		ADDED from [androidx.fragment:fragment-testing:1.4.0] C:\Users\Dell\.gradle\caches\transforms-3\5a0f4a6b9c30d088dc29c92774267bf5\transformed\jetified-fragment-testing-1.4.0\AndroidManifest.xml:32:13-36
	android:name
		ADDED from [androidx.fragment:fragment-testing:1.4.0] C:\Users\Dell\.gradle\caches\transforms-3\5a0f4a6b9c30d088dc29c92774267bf5\transformed\jetified-fragment-testing-1.4.0\AndroidManifest.xml:29:13-96
intent-filter#action:name:android.intent.action.MAIN
ADDED from [androidx.fragment:fragment-testing:1.4.0] C:\Users\Dell\.gradle\caches\transforms-3\5a0f4a6b9c30d088dc29c92774267bf5\transformed\jetified-fragment-testing-1.4.0\AndroidManifest.xml:34:13-36:29
activity#androidx.test.core.app.InstrumentationActivityInvoker$BootstrapActivity
ADDED from [androidx.test:core:1.4.0] C:\Users\Dell\.gradle\caches\transforms-3\8352d3479711a06a084bcc82169552bb\transformed\jetified-core-1.4.0\AndroidManifest.xml:27:9-34:20
	android:exported
		ADDED from [androidx.test:core:1.4.0] C:\Users\Dell\.gradle\caches\transforms-3\8352d3479711a06a084bcc82169552bb\transformed\jetified-core-1.4.0\AndroidManifest.xml:29:13-36
	android:theme
		ADDED from [androidx.test:core:1.4.0] C:\Users\Dell\.gradle\caches\transforms-3\8352d3479711a06a084bcc82169552bb\transformed\jetified-core-1.4.0\AndroidManifest.xml:30:13-49
	android:name
		ADDED from [androidx.test:core:1.4.0] C:\Users\Dell\.gradle\caches\transforms-3\8352d3479711a06a084bcc82169552bb\transformed\jetified-core-1.4.0\AndroidManifest.xml:28:13-99
activity#androidx.test.core.app.InstrumentationActivityInvoker$EmptyActivity
ADDED from [androidx.test:core:1.4.0] C:\Users\Dell\.gradle\caches\transforms-3\8352d3479711a06a084bcc82169552bb\transformed\jetified-core-1.4.0\AndroidManifest.xml:35:9-42:20
	android:exported
		ADDED from [androidx.test:core:1.4.0] C:\Users\Dell\.gradle\caches\transforms-3\8352d3479711a06a084bcc82169552bb\transformed\jetified-core-1.4.0\AndroidManifest.xml:37:13-36
	android:theme
		ADDED from [androidx.test:core:1.4.0] C:\Users\Dell\.gradle\caches\transforms-3\8352d3479711a06a084bcc82169552bb\transformed\jetified-core-1.4.0\AndroidManifest.xml:38:13-49
	android:name
		ADDED from [androidx.test:core:1.4.0] C:\Users\Dell\.gradle\caches\transforms-3\8352d3479711a06a084bcc82169552bb\transformed\jetified-core-1.4.0\AndroidManifest.xml:36:13-95
activity#androidx.test.core.app.InstrumentationActivityInvoker$EmptyFloatingActivity
ADDED from [androidx.test:core:1.4.0] C:\Users\Dell\.gradle\caches\transforms-3\8352d3479711a06a084bcc82169552bb\transformed\jetified-core-1.4.0\AndroidManifest.xml:43:9-50:20
	android:exported
		ADDED from [androidx.test:core:1.4.0] C:\Users\Dell\.gradle\caches\transforms-3\8352d3479711a06a084bcc82169552bb\transformed\jetified-core-1.4.0\AndroidManifest.xml:45:13-36
	android:theme
		ADDED from [androidx.test:core:1.4.0] C:\Users\Dell\.gradle\caches\transforms-3\8352d3479711a06a084bcc82169552bb\transformed\jetified-core-1.4.0\AndroidManifest.xml:46:13-56
	android:name
		ADDED from [androidx.test:core:1.4.0] C:\Users\Dell\.gradle\caches\transforms-3\8352d3479711a06a084bcc82169552bb\transformed\jetified-core-1.4.0\AndroidManifest.xml:44:13-103
uses-permission#android.permission.WAKE_LOCK
ADDED from [androidx.work:work-runtime:2.7.1] C:\Users\Dell\.gradle\caches\transforms-3\68cc233edb7c23ffea174cb2f5273bb3\transformed\work-runtime-2.7.1\AndroidManifest.xml:25:5-68
	android:name
		ADDED from [androidx.work:work-runtime:2.7.1] C:\Users\Dell\.gradle\caches\transforms-3\68cc233edb7c23ffea174cb2f5273bb3\transformed\work-runtime-2.7.1\AndroidManifest.xml:25:22-65
uses-permission#android.permission.ACCESS_NETWORK_STATE
ADDED from [androidx.work:work-runtime:2.7.1] C:\Users\Dell\.gradle\caches\transforms-3\68cc233edb7c23ffea174cb2f5273bb3\transformed\work-runtime-2.7.1\AndroidManifest.xml:26:5-79
	android:name
		ADDED from [androidx.work:work-runtime:2.7.1] C:\Users\Dell\.gradle\caches\transforms-3\68cc233edb7c23ffea174cb2f5273bb3\transformed\work-runtime-2.7.1\AndroidManifest.xml:26:22-76
uses-permission#android.permission.RECEIVE_BOOT_COMPLETED
ADDED from [androidx.work:work-runtime:2.7.1] C:\Users\Dell\.gradle\caches\transforms-3\68cc233edb7c23ffea174cb2f5273bb3\transformed\work-runtime-2.7.1\AndroidManifest.xml:27:5-81
	android:name
		ADDED from [androidx.work:work-runtime:2.7.1] C:\Users\Dell\.gradle\caches\transforms-3\68cc233edb7c23ffea174cb2f5273bb3\transformed\work-runtime-2.7.1\AndroidManifest.xml:27:22-78
uses-permission#android.permission.FOREGROUND_SERVICE
ADDED from [androidx.work:work-runtime:2.7.1] C:\Users\Dell\.gradle\caches\transforms-3\68cc233edb7c23ffea174cb2f5273bb3\transformed\work-runtime-2.7.1\AndroidManifest.xml:28:5-77
	android:name
		ADDED from [androidx.work:work-runtime:2.7.1] C:\Users\Dell\.gradle\caches\transforms-3\68cc233edb7c23ffea174cb2f5273bb3\transformed\work-runtime-2.7.1\AndroidManifest.xml:28:22-74
provider#androidx.startup.InitializationProvider
ADDED from [androidx.work:work-runtime:2.7.1] C:\Users\Dell\.gradle\caches\transforms-3\68cc233edb7c23ffea174cb2f5273bb3\transformed\work-runtime-2.7.1\AndroidManifest.xml:31:9-39:20
MERGED from [androidx.emoji2:emoji2:1.0.0] C:\Users\Dell\.gradle\caches\transforms-3\6e6a280a6dae4397ab2d83c1b19a23ec\transformed\jetified-emoji2-1.0.0\AndroidManifest.xml:26:9-34:20
MERGED from [androidx.emoji2:emoji2:1.0.0] C:\Users\Dell\.gradle\caches\transforms-3\6e6a280a6dae4397ab2d83c1b19a23ec\transformed\jetified-emoji2-1.0.0\AndroidManifest.xml:26:9-34:20
MERGED from [androidx.lifecycle:lifecycle-process:2.4.0] C:\Users\Dell\.gradle\caches\transforms-3\158b69580b367293f324ef966c720e99\transformed\jetified-lifecycle-process-2.4.0\AndroidManifest.xml:26:9-34:20
MERGED from [androidx.lifecycle:lifecycle-process:2.4.0] C:\Users\Dell\.gradle\caches\transforms-3\158b69580b367293f324ef966c720e99\transformed\jetified-lifecycle-process-2.4.0\AndroidManifest.xml:26:9-34:20
MERGED from [androidx.startup:startup-runtime:1.0.0] C:\Users\Dell\.gradle\caches\transforms-3\6c45329d90b30e24d21f8e70e361c521\transformed\jetified-startup-runtime-1.0.0\AndroidManifest.xml:26:9-30:34
MERGED from [androidx.startup:startup-runtime:1.0.0] C:\Users\Dell\.gradle\caches\transforms-3\6c45329d90b30e24d21f8e70e361c521\transformed\jetified-startup-runtime-1.0.0\AndroidManifest.xml:26:9-30:34
	tools:node
		ADDED from [androidx.work:work-runtime:2.7.1] C:\Users\Dell\.gradle\caches\transforms-3\68cc233edb7c23ffea174cb2f5273bb3\transformed\work-runtime-2.7.1\AndroidManifest.xml:35:13-31
	android:authorities
		ADDED from [androidx.work:work-runtime:2.7.1] C:\Users\Dell\.gradle\caches\transforms-3\68cc233edb7c23ffea174cb2f5273bb3\transformed\work-runtime-2.7.1\AndroidManifest.xml:33:13-68
	android:exported
		ADDED from [androidx.work:work-runtime:2.7.1] C:\Users\Dell\.gradle\caches\transforms-3\68cc233edb7c23ffea174cb2f5273bb3\transformed\work-runtime-2.7.1\AndroidManifest.xml:34:13-37
	android:name
		ADDED from [androidx.work:work-runtime:2.7.1] C:\Users\Dell\.gradle\caches\transforms-3\68cc233edb7c23ffea174cb2f5273bb3\transformed\work-runtime-2.7.1\AndroidManifest.xml:32:13-67
meta-data#androidx.work.WorkManagerInitializer
ADDED from [androidx.work:work-runtime:2.7.1] C:\Users\Dell\.gradle\caches\transforms-3\68cc233edb7c23ffea174cb2f5273bb3\transformed\work-runtime-2.7.1\AndroidManifest.xml:36:13-38:52
	android:value
		ADDED from [androidx.work:work-runtime:2.7.1] C:\Users\Dell\.gradle\caches\transforms-3\68cc233edb7c23ffea174cb2f5273bb3\transformed\work-runtime-2.7.1\AndroidManifest.xml:38:17-49
	android:name
		ADDED from [androidx.work:work-runtime:2.7.1] C:\Users\Dell\.gradle\caches\transforms-3\68cc233edb7c23ffea174cb2f5273bb3\transformed\work-runtime-2.7.1\AndroidManifest.xml:37:17-68
service#androidx.work.impl.background.systemalarm.SystemAlarmService
ADDED from [androidx.work:work-runtime:2.7.1] C:\Users\Dell\.gradle\caches\transforms-3\68cc233edb7c23ffea174cb2f5273bb3\transformed\work-runtime-2.7.1\AndroidManifest.xml:41:9-46:35
	android:enabled
		ADDED from [androidx.work:work-runtime:2.7.1] C:\Users\Dell\.gradle\caches\transforms-3\68cc233edb7c23ffea174cb2f5273bb3\transformed\work-runtime-2.7.1\AndroidManifest.xml:44:13-72
	android:exported
		ADDED from [androidx.work:work-runtime:2.7.1] C:\Users\Dell\.gradle\caches\transforms-3\68cc233edb7c23ffea174cb2f5273bb3\transformed\work-runtime-2.7.1\AndroidManifest.xml:45:13-37
	tools:targetApi
		ADDED from [androidx.work:work-runtime:2.7.1] C:\Users\Dell\.gradle\caches\transforms-3\68cc233edb7c23ffea174cb2f5273bb3\transformed\work-runtime-2.7.1\AndroidManifest.xml:46:13-32
	android:directBootAware
		ADDED from [androidx.work:work-runtime:2.7.1] C:\Users\Dell\.gradle\caches\transforms-3\68cc233edb7c23ffea174cb2f5273bb3\transformed\work-runtime-2.7.1\AndroidManifest.xml:43:13-44
	android:name
		ADDED from [androidx.work:work-runtime:2.7.1] C:\Users\Dell\.gradle\caches\transforms-3\68cc233edb7c23ffea174cb2f5273bb3\transformed\work-runtime-2.7.1\AndroidManifest.xml:42:13-88
service#androidx.work.impl.background.systemjob.SystemJobService
ADDED from [androidx.work:work-runtime:2.7.1] C:\Users\Dell\.gradle\caches\transforms-3\68cc233edb7c23ffea174cb2f5273bb3\transformed\work-runtime-2.7.1\AndroidManifest.xml:47:9-53:35
	android:enabled
		ADDED from [androidx.work:work-runtime:2.7.1] C:\Users\Dell\.gradle\caches\transforms-3\68cc233edb7c23ffea174cb2f5273bb3\transformed\work-runtime-2.7.1\AndroidManifest.xml:50:13-70
	android:exported
		ADDED from [androidx.work:work-runtime:2.7.1] C:\Users\Dell\.gradle\caches\transforms-3\68cc233edb7c23ffea174cb2f5273bb3\transformed\work-runtime-2.7.1\AndroidManifest.xml:51:13-36
	android:permission
		ADDED from [androidx.work:work-runtime:2.7.1] C:\Users\Dell\.gradle\caches\transforms-3\68cc233edb7c23ffea174cb2f5273bb3\transformed\work-runtime-2.7.1\AndroidManifest.xml:52:13-69
	tools:targetApi
		ADDED from [androidx.work:work-runtime:2.7.1] C:\Users\Dell\.gradle\caches\transforms-3\68cc233edb7c23ffea174cb2f5273bb3\transformed\work-runtime-2.7.1\AndroidManifest.xml:53:13-32
	android:directBootAware
		ADDED from [androidx.work:work-runtime:2.7.1] C:\Users\Dell\.gradle\caches\transforms-3\68cc233edb7c23ffea174cb2f5273bb3\transformed\work-runtime-2.7.1\AndroidManifest.xml:49:13-44
	android:name
		ADDED from [androidx.work:work-runtime:2.7.1] C:\Users\Dell\.gradle\caches\transforms-3\68cc233edb7c23ffea174cb2f5273bb3\transformed\work-runtime-2.7.1\AndroidManifest.xml:48:13-84
service#androidx.work.impl.foreground.SystemForegroundService
ADDED from [androidx.work:work-runtime:2.7.1] C:\Users\Dell\.gradle\caches\transforms-3\68cc233edb7c23ffea174cb2f5273bb3\transformed\work-runtime-2.7.1\AndroidManifest.xml:54:9-59:35
	android:enabled
		ADDED from [androidx.work:work-runtime:2.7.1] C:\Users\Dell\.gradle\caches\transforms-3\68cc233edb7c23ffea174cb2f5273bb3\transformed\work-runtime-2.7.1\AndroidManifest.xml:57:13-77
	android:exported
		ADDED from [androidx.work:work-runtime:2.7.1] C:\Users\Dell\.gradle\caches\transforms-3\68cc233edb7c23ffea174cb2f5273bb3\transformed\work-runtime-2.7.1\AndroidManifest.xml:58:13-37
	tools:targetApi
		ADDED from [androidx.work:work-runtime:2.7.1] C:\Users\Dell\.gradle\caches\transforms-3\68cc233edb7c23ffea174cb2f5273bb3\transformed\work-runtime-2.7.1\AndroidManifest.xml:59:13-32
	android:directBootAware
		ADDED from [androidx.work:work-runtime:2.7.1] C:\Users\Dell\.gradle\caches\transforms-3\68cc233edb7c23ffea174cb2f5273bb3\transformed\work-runtime-2.7.1\AndroidManifest.xml:56:13-44
	android:name
		ADDED from [androidx.work:work-runtime:2.7.1] C:\Users\Dell\.gradle\caches\transforms-3\68cc233edb7c23ffea174cb2f5273bb3\transformed\work-runtime-2.7.1\AndroidManifest.xml:55:13-81
receiver#androidx.work.impl.utils.ForceStopRunnable$BroadcastReceiver
ADDED from [androidx.work:work-runtime:2.7.1] C:\Users\Dell\.gradle\caches\transforms-3\68cc233edb7c23ffea174cb2f5273bb3\transformed\work-runtime-2.7.1\AndroidManifest.xml:61:9-66:35
	android:enabled
		ADDED from [androidx.work:work-runtime:2.7.1] C:\Users\Dell\.gradle\caches\transforms-3\68cc233edb7c23ffea174cb2f5273bb3\transformed\work-runtime-2.7.1\AndroidManifest.xml:64:13-35
	android:exported
		ADDED from [androidx.work:work-runtime:2.7.1] C:\Users\Dell\.gradle\caches\transforms-3\68cc233edb7c23ffea174cb2f5273bb3\transformed\work-runtime-2.7.1\AndroidManifest.xml:65:13-37
	tools:targetApi
		ADDED from [androidx.work:work-runtime:2.7.1] C:\Users\Dell\.gradle\caches\transforms-3\68cc233edb7c23ffea174cb2f5273bb3\transformed\work-runtime-2.7.1\AndroidManifest.xml:66:13-32
	android:directBootAware
		ADDED from [androidx.work:work-runtime:2.7.1] C:\Users\Dell\.gradle\caches\transforms-3\68cc233edb7c23ffea174cb2f5273bb3\transformed\work-runtime-2.7.1\AndroidManifest.xml:63:13-44
	android:name
		ADDED from [androidx.work:work-runtime:2.7.1] C:\Users\Dell\.gradle\caches\transforms-3\68cc233edb7c23ffea174cb2f5273bb3\transformed\work-runtime-2.7.1\AndroidManifest.xml:62:13-88
receiver#androidx.work.impl.background.systemalarm.ConstraintProxy$BatteryChargingProxy
ADDED from [androidx.work:work-runtime:2.7.1] C:\Users\Dell\.gradle\caches\transforms-3\68cc233edb7c23ffea174cb2f5273bb3\transformed\work-runtime-2.7.1\AndroidManifest.xml:67:9-77:20
	android:enabled
		ADDED from [androidx.work:work-runtime:2.7.1] C:\Users\Dell\.gradle\caches\transforms-3\68cc233edb7c23ffea174cb2f5273bb3\transformed\work-runtime-2.7.1\AndroidManifest.xml:70:13-36
	android:exported
		ADDED from [androidx.work:work-runtime:2.7.1] C:\Users\Dell\.gradle\caches\transforms-3\68cc233edb7c23ffea174cb2f5273bb3\transformed\work-runtime-2.7.1\AndroidManifest.xml:71:13-37
	tools:targetApi
		ADDED from [androidx.work:work-runtime:2.7.1] C:\Users\Dell\.gradle\caches\transforms-3\68cc233edb7c23ffea174cb2f5273bb3\transformed\work-runtime-2.7.1\AndroidManifest.xml:72:13-32
	android:directBootAware
		ADDED from [androidx.work:work-runtime:2.7.1] C:\Users\Dell\.gradle\caches\transforms-3\68cc233edb7c23ffea174cb2f5273bb3\transformed\work-runtime-2.7.1\AndroidManifest.xml:69:13-44
	android:name
		ADDED from [androidx.work:work-runtime:2.7.1] C:\Users\Dell\.gradle\caches\transforms-3\68cc233edb7c23ffea174cb2f5273bb3\transformed\work-runtime-2.7.1\AndroidManifest.xml:68:13-106
intent-filter#action:name:android.intent.action.ACTION_POWER_CONNECTED+action:name:android.intent.action.ACTION_POWER_DISCONNECTED
ADDED from [androidx.work:work-runtime:2.7.1] C:\Users\Dell\.gradle\caches\transforms-3\68cc233edb7c23ffea174cb2f5273bb3\transformed\work-runtime-2.7.1\AndroidManifest.xml:73:13-76:29
action#android.intent.action.ACTION_POWER_CONNECTED
ADDED from [androidx.work:work-runtime:2.7.1] C:\Users\Dell\.gradle\caches\transforms-3\68cc233edb7c23ffea174cb2f5273bb3\transformed\work-runtime-2.7.1\AndroidManifest.xml:74:17-87
	android:name
		ADDED from [androidx.work:work-runtime:2.7.1] C:\Users\Dell\.gradle\caches\transforms-3\68cc233edb7c23ffea174cb2f5273bb3\transformed\work-runtime-2.7.1\AndroidManifest.xml:74:25-84
action#android.intent.action.ACTION_POWER_DISCONNECTED
ADDED from [androidx.work:work-runtime:2.7.1] C:\Users\Dell\.gradle\caches\transforms-3\68cc233edb7c23ffea174cb2f5273bb3\transformed\work-runtime-2.7.1\AndroidManifest.xml:75:17-90
	android:name
		ADDED from [androidx.work:work-runtime:2.7.1] C:\Users\Dell\.gradle\caches\transforms-3\68cc233edb7c23ffea174cb2f5273bb3\transformed\work-runtime-2.7.1\AndroidManifest.xml:75:25-87
receiver#androidx.work.impl.background.systemalarm.ConstraintProxy$BatteryNotLowProxy
ADDED from [androidx.work:work-runtime:2.7.1] C:\Users\Dell\.gradle\caches\transforms-3\68cc233edb7c23ffea174cb2f5273bb3\transformed\work-runtime-2.7.1\AndroidManifest.xml:78:9-88:20
	android:enabled
		ADDED from [androidx.work:work-runtime:2.7.1] C:\Users\Dell\.gradle\caches\transforms-3\68cc233edb7c23ffea174cb2f5273bb3\transformed\work-runtime-2.7.1\AndroidManifest.xml:81:13-36
	android:exported
		ADDED from [androidx.work:work-runtime:2.7.1] C:\Users\Dell\.gradle\caches\transforms-3\68cc233edb7c23ffea174cb2f5273bb3\transformed\work-runtime-2.7.1\AndroidManifest.xml:82:13-37
	tools:targetApi
		ADDED from [androidx.work:work-runtime:2.7.1] C:\Users\Dell\.gradle\caches\transforms-3\68cc233edb7c23ffea174cb2f5273bb3\transformed\work-runtime-2.7.1\AndroidManifest.xml:83:13-32
	android:directBootAware
		ADDED from [androidx.work:work-runtime:2.7.1] C:\Users\Dell\.gradle\caches\transforms-3\68cc233edb7c23ffea174cb2f5273bb3\transformed\work-runtime-2.7.1\AndroidManifest.xml:80:13-44
	android:name
		ADDED from [androidx.work:work-runtime:2.7.1] C:\Users\Dell\.gradle\caches\transforms-3\68cc233edb7c23ffea174cb2f5273bb3\transformed\work-runtime-2.7.1\AndroidManifest.xml:79:13-104
intent-filter#action:name:android.intent.action.BATTERY_LOW+action:name:android.intent.action.BATTERY_OKAY
ADDED from [androidx.work:work-runtime:2.7.1] C:\Users\Dell\.gradle\caches\transforms-3\68cc233edb7c23ffea174cb2f5273bb3\transformed\work-runtime-2.7.1\AndroidManifest.xml:84:13-87:29
action#android.intent.action.BATTERY_OKAY
ADDED from [androidx.work:work-runtime:2.7.1] C:\Users\Dell\.gradle\caches\transforms-3\68cc233edb7c23ffea174cb2f5273bb3\transformed\work-runtime-2.7.1\AndroidManifest.xml:85:17-77
	android:name
		ADDED from [androidx.work:work-runtime:2.7.1] C:\Users\Dell\.gradle\caches\transforms-3\68cc233edb7c23ffea174cb2f5273bb3\transformed\work-runtime-2.7.1\AndroidManifest.xml:85:25-74
action#android.intent.action.BATTERY_LOW
ADDED from [androidx.work:work-runtime:2.7.1] C:\Users\Dell\.gradle\caches\transforms-3\68cc233edb7c23ffea174cb2f5273bb3\transformed\work-runtime-2.7.1\AndroidManifest.xml:86:17-76
	android:name
		ADDED from [androidx.work:work-runtime:2.7.1] C:\Users\Dell\.gradle\caches\transforms-3\68cc233edb7c23ffea174cb2f5273bb3\transformed\work-runtime-2.7.1\AndroidManifest.xml:86:25-73
receiver#androidx.work.impl.background.systemalarm.ConstraintProxy$StorageNotLowProxy
ADDED from [androidx.work:work-runtime:2.7.1] C:\Users\Dell\.gradle\caches\transforms-3\68cc233edb7c23ffea174cb2f5273bb3\transformed\work-runtime-2.7.1\AndroidManifest.xml:89:9-99:20
	android:enabled
		ADDED from [androidx.work:work-runtime:2.7.1] C:\Users\Dell\.gradle\caches\transforms-3\68cc233edb7c23ffea174cb2f5273bb3\transformed\work-runtime-2.7.1\AndroidManifest.xml:92:13-36
	android:exported
		ADDED from [androidx.work:work-runtime:2.7.1] C:\Users\Dell\.gradle\caches\transforms-3\68cc233edb7c23ffea174cb2f5273bb3\transformed\work-runtime-2.7.1\AndroidManifest.xml:93:13-37
	tools:targetApi
		ADDED from [androidx.work:work-runtime:2.7.1] C:\Users\Dell\.gradle\caches\transforms-3\68cc233edb7c23ffea174cb2f5273bb3\transformed\work-runtime-2.7.1\AndroidManifest.xml:94:13-32
	android:directBootAware
		ADDED from [androidx.work:work-runtime:2.7.1] C:\Users\Dell\.gradle\caches\transforms-3\68cc233edb7c23ffea174cb2f5273bb3\transformed\work-runtime-2.7.1\AndroidManifest.xml:91:13-44
	android:name
		ADDED from [androidx.work:work-runtime:2.7.1] C:\Users\Dell\.gradle\caches\transforms-3\68cc233edb7c23ffea174cb2f5273bb3\transformed\work-runtime-2.7.1\AndroidManifest.xml:90:13-104
intent-filter#action:name:android.intent.action.DEVICE_STORAGE_LOW+action:name:android.intent.action.DEVICE_STORAGE_OK
ADDED from [androidx.work:work-runtime:2.7.1] C:\Users\Dell\.gradle\caches\transforms-3\68cc233edb7c23ffea174cb2f5273bb3\transformed\work-runtime-2.7.1\AndroidManifest.xml:95:13-98:29
action#android.intent.action.DEVICE_STORAGE_LOW
ADDED from [androidx.work:work-runtime:2.7.1] C:\Users\Dell\.gradle\caches\transforms-3\68cc233edb7c23ffea174cb2f5273bb3\transformed\work-runtime-2.7.1\AndroidManifest.xml:96:17-83
	android:name
		ADDED from [androidx.work:work-runtime:2.7.1] C:\Users\Dell\.gradle\caches\transforms-3\68cc233edb7c23ffea174cb2f5273bb3\transformed\work-runtime-2.7.1\AndroidManifest.xml:96:25-80
action#android.intent.action.DEVICE_STORAGE_OK
ADDED from [androidx.work:work-runtime:2.7.1] C:\Users\Dell\.gradle\caches\transforms-3\68cc233edb7c23ffea174cb2f5273bb3\transformed\work-runtime-2.7.1\AndroidManifest.xml:97:17-82
	android:name
		ADDED from [androidx.work:work-runtime:2.7.1] C:\Users\Dell\.gradle\caches\transforms-3\68cc233edb7c23ffea174cb2f5273bb3\transformed\work-runtime-2.7.1\AndroidManifest.xml:97:25-79
receiver#androidx.work.impl.background.systemalarm.ConstraintProxy$NetworkStateProxy
ADDED from [androidx.work:work-runtime:2.7.1] C:\Users\Dell\.gradle\caches\transforms-3\68cc233edb7c23ffea174cb2f5273bb3\transformed\work-runtime-2.7.1\AndroidManifest.xml:100:9-109:20
	android:enabled
		ADDED from [androidx.work:work-runtime:2.7.1] C:\Users\Dell\.gradle\caches\transforms-3\68cc233edb7c23ffea174cb2f5273bb3\transformed\work-runtime-2.7.1\AndroidManifest.xml:103:13-36
	android:exported
		ADDED from [androidx.work:work-runtime:2.7.1] C:\Users\Dell\.gradle\caches\transforms-3\68cc233edb7c23ffea174cb2f5273bb3\transformed\work-runtime-2.7.1\AndroidManifest.xml:104:13-37
	tools:targetApi
		ADDED from [androidx.work:work-runtime:2.7.1] C:\Users\Dell\.gradle\caches\transforms-3\68cc233edb7c23ffea174cb2f5273bb3\transformed\work-runtime-2.7.1\AndroidManifest.xml:105:13-32
	android:directBootAware
		ADDED from [androidx.work:work-runtime:2.7.1] C:\Users\Dell\.gradle\caches\transforms-3\68cc233edb7c23ffea174cb2f5273bb3\transformed\work-runtime-2.7.1\AndroidManifest.xml:102:13-44
	android:name
		ADDED from [androidx.work:work-runtime:2.7.1] C:\Users\Dell\.gradle\caches\transforms-3\68cc233edb7c23ffea174cb2f5273bb3\transformed\work-runtime-2.7.1\AndroidManifest.xml:101:13-103
intent-filter#action:name:android.net.conn.CONNECTIVITY_CHANGE
ADDED from [androidx.work:work-runtime:2.7.1] C:\Users\Dell\.gradle\caches\transforms-3\68cc233edb7c23ffea174cb2f5273bb3\transformed\work-runtime-2.7.1\AndroidManifest.xml:106:13-108:29
action#android.net.conn.CONNECTIVITY_CHANGE
ADDED from [androidx.work:work-runtime:2.7.1] C:\Users\Dell\.gradle\caches\transforms-3\68cc233edb7c23ffea174cb2f5273bb3\transformed\work-runtime-2.7.1\AndroidManifest.xml:107:17-79
	android:name
		ADDED from [androidx.work:work-runtime:2.7.1] C:\Users\Dell\.gradle\caches\transforms-3\68cc233edb7c23ffea174cb2f5273bb3\transformed\work-runtime-2.7.1\AndroidManifest.xml:107:25-76
receiver#androidx.work.impl.background.systemalarm.RescheduleReceiver
ADDED from [androidx.work:work-runtime:2.7.1] C:\Users\Dell\.gradle\caches\transforms-3\68cc233edb7c23ffea174cb2f5273bb3\transformed\work-runtime-2.7.1\AndroidManifest.xml:110:9-121:20
	android:enabled
		ADDED from [androidx.work:work-runtime:2.7.1] C:\Users\Dell\.gradle\caches\transforms-3\68cc233edb7c23ffea174cb2f5273bb3\transformed\work-runtime-2.7.1\AndroidManifest.xml:113:13-36
	android:exported
		ADDED from [androidx.work:work-runtime:2.7.1] C:\Users\Dell\.gradle\caches\transforms-3\68cc233edb7c23ffea174cb2f5273bb3\transformed\work-runtime-2.7.1\AndroidManifest.xml:114:13-37
	tools:targetApi
		ADDED from [androidx.work:work-runtime:2.7.1] C:\Users\Dell\.gradle\caches\transforms-3\68cc233edb7c23ffea174cb2f5273bb3\transformed\work-runtime-2.7.1\AndroidManifest.xml:115:13-32
	android:directBootAware
		ADDED from [androidx.work:work-runtime:2.7.1] C:\Users\Dell\.gradle\caches\transforms-3\68cc233edb7c23ffea174cb2f5273bb3\transformed\work-runtime-2.7.1\AndroidManifest.xml:112:13-44
	android:name
		ADDED from [androidx.work:work-runtime:2.7.1] C:\Users\Dell\.gradle\caches\transforms-3\68cc233edb7c23ffea174cb2f5273bb3\transformed\work-runtime-2.7.1\AndroidManifest.xml:111:13-88
intent-filter#action:name:android.intent.action.BOOT_COMPLETED+action:name:android.intent.action.TIMEZONE_CHANGED+action:name:android.intent.action.TIME_SET
ADDED from [androidx.work:work-runtime:2.7.1] C:\Users\Dell\.gradle\caches\transforms-3\68cc233edb7c23ffea174cb2f5273bb3\transformed\work-runtime-2.7.1\AndroidManifest.xml:116:13-120:29
action#android.intent.action.BOOT_COMPLETED
ADDED from [androidx.work:work-runtime:2.7.1] C:\Users\Dell\.gradle\caches\transforms-3\68cc233edb7c23ffea174cb2f5273bb3\transformed\work-runtime-2.7.1\AndroidManifest.xml:117:17-79
	android:name
		ADDED from [androidx.work:work-runtime:2.7.1] C:\Users\Dell\.gradle\caches\transforms-3\68cc233edb7c23ffea174cb2f5273bb3\transformed\work-runtime-2.7.1\AndroidManifest.xml:117:25-76
action#android.intent.action.TIME_SET
ADDED from [androidx.work:work-runtime:2.7.1] C:\Users\Dell\.gradle\caches\transforms-3\68cc233edb7c23ffea174cb2f5273bb3\transformed\work-runtime-2.7.1\AndroidManifest.xml:118:17-73
	android:name
		ADDED from [androidx.work:work-runtime:2.7.1] C:\Users\Dell\.gradle\caches\transforms-3\68cc233edb7c23ffea174cb2f5273bb3\transformed\work-runtime-2.7.1\AndroidManifest.xml:118:25-70
action#android.intent.action.TIMEZONE_CHANGED
ADDED from [androidx.work:work-runtime:2.7.1] C:\Users\Dell\.gradle\caches\transforms-3\68cc233edb7c23ffea174cb2f5273bb3\transformed\work-runtime-2.7.1\AndroidManifest.xml:119:17-81
	android:name
		ADDED from [androidx.work:work-runtime:2.7.1] C:\Users\Dell\.gradle\caches\transforms-3\68cc233edb7c23ffea174cb2f5273bb3\transformed\work-runtime-2.7.1\AndroidManifest.xml:119:25-78
receiver#androidx.work.impl.background.systemalarm.ConstraintProxyUpdateReceiver
ADDED from [androidx.work:work-runtime:2.7.1] C:\Users\Dell\.gradle\caches\transforms-3\68cc233edb7c23ffea174cb2f5273bb3\transformed\work-runtime-2.7.1\AndroidManifest.xml:122:9-131:20
	android:enabled
		ADDED from [androidx.work:work-runtime:2.7.1] C:\Users\Dell\.gradle\caches\transforms-3\68cc233edb7c23ffea174cb2f5273bb3\transformed\work-runtime-2.7.1\AndroidManifest.xml:125:13-72
	android:exported
		ADDED from [androidx.work:work-runtime:2.7.1] C:\Users\Dell\.gradle\caches\transforms-3\68cc233edb7c23ffea174cb2f5273bb3\transformed\work-runtime-2.7.1\AndroidManifest.xml:126:13-37
	tools:targetApi
		ADDED from [androidx.work:work-runtime:2.7.1] C:\Users\Dell\.gradle\caches\transforms-3\68cc233edb7c23ffea174cb2f5273bb3\transformed\work-runtime-2.7.1\AndroidManifest.xml:127:13-32
	android:directBootAware
		ADDED from [androidx.work:work-runtime:2.7.1] C:\Users\Dell\.gradle\caches\transforms-3\68cc233edb7c23ffea174cb2f5273bb3\transformed\work-runtime-2.7.1\AndroidManifest.xml:124:13-44
	android:name
		ADDED from [androidx.work:work-runtime:2.7.1] C:\Users\Dell\.gradle\caches\transforms-3\68cc233edb7c23ffea174cb2f5273bb3\transformed\work-runtime-2.7.1\AndroidManifest.xml:123:13-99
intent-filter#action:name:androidx.work.impl.background.systemalarm.UpdateProxies
ADDED from [androidx.work:work-runtime:2.7.1] C:\Users\Dell\.gradle\caches\transforms-3\68cc233edb7c23ffea174cb2f5273bb3\transformed\work-runtime-2.7.1\AndroidManifest.xml:128:13-130:29
action#androidx.work.impl.background.systemalarm.UpdateProxies
ADDED from [androidx.work:work-runtime:2.7.1] C:\Users\Dell\.gradle\caches\transforms-3\68cc233edb7c23ffea174cb2f5273bb3\transformed\work-runtime-2.7.1\AndroidManifest.xml:129:17-98
	android:name
		ADDED from [androidx.work:work-runtime:2.7.1] C:\Users\Dell\.gradle\caches\transforms-3\68cc233edb7c23ffea174cb2f5273bb3\transformed\work-runtime-2.7.1\AndroidManifest.xml:129:25-95
receiver#androidx.work.impl.diagnostics.DiagnosticsReceiver
ADDED from [androidx.work:work-runtime:2.7.1] C:\Users\Dell\.gradle\caches\transforms-3\68cc233edb7c23ffea174cb2f5273bb3\transformed\work-runtime-2.7.1\AndroidManifest.xml:132:9-142:20
	android:enabled
		ADDED from [androidx.work:work-runtime:2.7.1] C:\Users\Dell\.gradle\caches\transforms-3\68cc233edb7c23ffea174cb2f5273bb3\transformed\work-runtime-2.7.1\AndroidManifest.xml:135:13-35
	android:exported
		ADDED from [androidx.work:work-runtime:2.7.1] C:\Users\Dell\.gradle\caches\transforms-3\68cc233edb7c23ffea174cb2f5273bb3\transformed\work-runtime-2.7.1\AndroidManifest.xml:136:13-36
	android:permission
		ADDED from [androidx.work:work-runtime:2.7.1] C:\Users\Dell\.gradle\caches\transforms-3\68cc233edb7c23ffea174cb2f5273bb3\transformed\work-runtime-2.7.1\AndroidManifest.xml:137:13-57
	tools:targetApi
		ADDED from [androidx.work:work-runtime:2.7.1] C:\Users\Dell\.gradle\caches\transforms-3\68cc233edb7c23ffea174cb2f5273bb3\transformed\work-runtime-2.7.1\AndroidManifest.xml:138:13-32
	android:directBootAware
		ADDED from [androidx.work:work-runtime:2.7.1] C:\Users\Dell\.gradle\caches\transforms-3\68cc233edb7c23ffea174cb2f5273bb3\transformed\work-runtime-2.7.1\AndroidManifest.xml:134:13-44
	android:name
		ADDED from [androidx.work:work-runtime:2.7.1] C:\Users\Dell\.gradle\caches\transforms-3\68cc233edb7c23ffea174cb2f5273bb3\transformed\work-runtime-2.7.1\AndroidManifest.xml:133:13-78
intent-filter#action:name:androidx.work.diagnostics.REQUEST_DIAGNOSTICS
ADDED from [androidx.work:work-runtime:2.7.1] C:\Users\Dell\.gradle\caches\transforms-3\68cc233edb7c23ffea174cb2f5273bb3\transformed\work-runtime-2.7.1\AndroidManifest.xml:139:13-141:29
action#androidx.work.diagnostics.REQUEST_DIAGNOSTICS
ADDED from [androidx.work:work-runtime:2.7.1] C:\Users\Dell\.gradle\caches\transforms-3\68cc233edb7c23ffea174cb2f5273bb3\transformed\work-runtime-2.7.1\AndroidManifest.xml:140:17-88
	android:name
		ADDED from [androidx.work:work-runtime:2.7.1] C:\Users\Dell\.gradle\caches\transforms-3\68cc233edb7c23ffea174cb2f5273bb3\transformed\work-runtime-2.7.1\AndroidManifest.xml:140:25-85
meta-data#androidx.emoji2.text.EmojiCompatInitializer
ADDED from [androidx.emoji2:emoji2:1.0.0] C:\Users\Dell\.gradle\caches\transforms-3\6e6a280a6dae4397ab2d83c1b19a23ec\transformed\jetified-emoji2-1.0.0\AndroidManifest.xml:31:13-33:52
	android:value
		ADDED from [androidx.emoji2:emoji2:1.0.0] C:\Users\Dell\.gradle\caches\transforms-3\6e6a280a6dae4397ab2d83c1b19a23ec\transformed\jetified-emoji2-1.0.0\AndroidManifest.xml:33:17-49
	android:name
		ADDED from [androidx.emoji2:emoji2:1.0.0] C:\Users\Dell\.gradle\caches\transforms-3\6e6a280a6dae4397ab2d83c1b19a23ec\transformed\jetified-emoji2-1.0.0\AndroidManifest.xml:32:17-75
meta-data#androidx.lifecycle.ProcessLifecycleInitializer
ADDED from [androidx.lifecycle:lifecycle-process:2.4.0] C:\Users\Dell\.gradle\caches\transforms-3\158b69580b367293f324ef966c720e99\transformed\jetified-lifecycle-process-2.4.0\AndroidManifest.xml:31:13-33:52
	android:value
		ADDED from [androidx.lifecycle:lifecycle-process:2.4.0] C:\Users\Dell\.gradle\caches\transforms-3\158b69580b367293f324ef966c720e99\transformed\jetified-lifecycle-process-2.4.0\AndroidManifest.xml:33:17-49
	android:name
		ADDED from [androidx.lifecycle:lifecycle-process:2.4.0] C:\Users\Dell\.gradle\caches\transforms-3\158b69580b367293f324ef966c720e99\transformed\jetified-lifecycle-process-2.4.0\AndroidManifest.xml:32:17-78
service#androidx.room.MultiInstanceInvalidationService
ADDED from [androidx.room:room-runtime:2.4.1] C:\Users\Dell\.gradle\caches\transforms-3\caff5b252ea7a3940fe686b4508c9653\transformed\room-runtime-2.4.1\AndroidManifest.xml:25:9-28:40
	android:exported
		ADDED from [androidx.room:room-runtime:2.4.1] C:\Users\Dell\.gradle\caches\transforms-3\caff5b252ea7a3940fe686b4508c9653\transformed\room-runtime-2.4.1\AndroidManifest.xml:28:13-37
	android:directBootAware
		ADDED from [androidx.room:room-runtime:2.4.1] C:\Users\Dell\.gradle\caches\transforms-3\caff5b252ea7a3940fe686b4508c9653\transformed\room-runtime-2.4.1\AndroidManifest.xml:27:13-43
	android:name
		ADDED from [androidx.room:room-runtime:2.4.1] C:\Users\Dell\.gradle\caches\transforms-3\caff5b252ea7a3940fe686b4508c9653\transformed\room-runtime-2.4.1\AndroidManifest.xml:26:13-74
